<?xml version="1.0" encoding="iso-8859-1"?>
<!-- Generator: Adobe Illustrator 22.1.0, SVG Export Plug-In . SVG Version: 6.00 Build 0)  -->
<svg version="1.1" xmlns="http://www.w3.org/2000/svg" xmlns:xlink="http://www.w3.org/1999/xlink" x="0px" y="0px"
	 viewBox="0 0 450.539 98.625" style="enable-background:new 0 0 450.539 98.625;" xml:space="preserve">
<g id="Guides" style="display:none;">
	<polygon style="display:inline;opacity:0.29;fill:#FFFFFF;" points="37.662,39.369 43.35,39.369 37.775,24.683 32.001,39.369 	"/>
	<g style="display:inline;opacity:0.29;">
		<defs>
			<rect id="SVGID_1_" x="82.515" y="14.938" style="opacity:0.29;" width="377.682" height="32.458"/>
		</defs>
		<clipPath id="SVGID_2_">
			<use xlink:href="#SVGID_1_"  style="overflow:visible;"/>
		</clipPath>
		<g style="clip-path:url(#SVGID_2_);">
			<defs>
				<rect id="SVGID_3_" x="82.515" y="14.938" width="377.682" height="32.458"/>
			</defs>
			<clipPath id="SVGID_4_">
				<use xlink:href="#SVGID_3_"  style="overflow:visible;"/>
			</clipPath>
			<g style="clip-path:url(#SVGID_4_);">
				<g>
					<defs>
						<rect id="SVGID_5_" x="82.515" y="14.938" width="377.682" height="32.458"/>
					</defs>
					<clipPath id="SVGID_6_">
						<use xlink:href="#SVGID_5_"  style="overflow:visible;"/>
					</clipPath>
					<rect x="92.173" y="22.45" style="clip-path:url(#SVGID_6_);fill:#E6E3D9;" width="358.366" height="23.873"/>
				</g>
			</g>
		</g>
		
			<line style="clip-path:url(#SVGID_2_);fill:none;stroke:#343333;stroke-width:0.5;stroke-linecap:round;stroke-linejoin:round;stroke-dasharray:0,0.999;" x1="94.404" y1="29.644" x2="449.65" y2="29.644"/>
		
			<path style="clip-path:url(#SVGID_2_);fill:none;stroke:#343333;stroke-width:0.5;stroke-linecap:round;stroke-linejoin:round;" d="
			M450.186,29.644L450.186,29.644 M93.332,29.644L93.332,29.644"/>
	</g>
	<g style="display:inline;opacity:0.11;">
		<polygon style="fill:#FFFFFF;" points="14.683,0.339 14.674,22.987 17.019,22.982 7.79,47.493 0,47.483 0,70.136 75.607,70.136 
			75.607,47.452 67.762,47.442 58.613,23.001 60.909,23.012 60.909,0.346 		"/>
		<g>
			<path style="fill:#AB1F23;" d="M37.79,8.802l16.194,41.992c0,0,2.076,5.109,5.445,5.109H47.638c0,0,0.592,0.087,1.182-0.897
				c0.338-0.561,0.054-1.404,0.054-1.404l-3.646-9.374H37.79h-7.405l-3.652,9.374c0,0-0.278,0.844,0.059,1.404
				c0.588,0.984,1.179,0.897,1.179,0.897h-11.79c3.368,0,5.444-5.109,5.444-5.109L37.79,8.802z"/>
		</g>
		<polygon style="fill:#15244A;" points="37.804,8.749 52.406,8.749 52.406,14.59 46.34,14.59 62.29,55.698 67.006,55.698 
			67.006,61.746 47.239,61.746 47.239,55.862 41.69,55.862 41.69,67.4 72.891,67.4 72.891,50.197 65.884,50.209 54.653,20.267 
			58.18,20.267 58.18,3.073 37.804,3.073 17.428,3.073 17.428,20.267 20.956,20.267 9.724,50.171 2.717,50.197 2.717,67.4 
			33.92,67.4 33.92,55.862 28.369,55.862 28.369,61.746 8.601,61.746 8.601,55.698 13.318,55.698 29.268,14.59 23.202,14.59 
			23.202,8.749 		"/>
		<g>
			<path style="fill:#15244A;" d="M81.91,62.404c0.571,0.558,0.855,1.241,0.855,2.05c0,0.806-0.284,1.488-0.853,2.047
				c-0.569,0.557-1.266,0.835-2.093,0.835c-0.825,0-1.52-0.278-2.091-0.835c-0.567-0.559-0.852-1.241-0.852-2.047
				c0-0.809,0.286-1.492,0.854-2.05c0.571-0.559,1.266-0.836,2.088-0.836C80.644,61.568,81.34,61.846,81.91,62.404 M81.495,62.751
				c-0.454-0.464-1.014-0.695-1.675-0.695c-0.66,0-1.217,0.231-1.672,0.695c-0.456,0.464-0.683,1.032-0.683,1.703
				c0,0.67,0.227,1.239,0.683,1.701c0.455,0.461,1.012,0.693,1.672,0.693c0.659,0,1.217-0.231,1.674-0.693
				c0.456-0.462,0.684-1.031,0.684-1.701C82.178,63.783,81.951,63.215,81.495,62.751 M78.544,62.785h0.264h1.072
				c0.361,0,0.642,0.08,0.848,0.239c0.204,0.159,0.307,0.382,0.307,0.665c0,0.307-0.103,0.551-0.308,0.726
				c-0.153,0.13-0.35,0.213-0.591,0.245l0.959,1.46h-0.302h-0.305l-0.864-1.441l-0.557,0.002v1.439h-0.261h-0.262V62.785z
				 M79.067,64.237h0.71c0.247,0,0.427-0.044,0.542-0.132c0.115-0.088,0.17-0.226,0.17-0.414c0-0.166-0.056-0.286-0.17-0.365
				c-0.115-0.077-0.294-0.117-0.542-0.117h-0.71V64.237z"/>
		</g>
		<polygon style="fill:#FFFFFF;" points="37.777,39.777 43.481,39.777 37.889,25.047 32.098,39.777 		"/>
		<rect x="92.488" y="0.339" style="fill:#15244A;" width="1.353" height="70"/>
		<g>
			<path style="fill:#15244A;" d="M353.536,28.557c-1.37,0-2.554,0.18-3.552,0.541c-0.999,0.361-1.764,0.886-2.297,1.576
				c-0.533,0.69-0.8,1.506-0.8,2.447c0,0.72,0.154,1.335,0.462,1.842c0.308,0.507,0.823,0.975,1.545,1.403
				c0.721,0.428,1.741,0.878,3.057,1.349c1.766,0.637,2.849,1.097,3.246,1.38c0.513,0.366,0.769,0.878,0.769,1.536
				c0,0.68-0.35,1.247-1.05,1.702c-0.701,0.454-1.568,0.682-2.603,0.682c-0.722,0-1.403-0.065-2.047-0.196
				c-0.642-0.131-1.304-0.348-1.984-0.651c-0.679-0.303-1.447-0.721-2.305-1.255l1.16,3.34c0.91,0.335,1.672,0.559,2.29,0.674
				c0.617,0.115,1.374,0.172,2.274,0.172c1.516,0,2.836-0.214,3.96-0.643c1.123-0.428,1.991-1.045,2.602-1.85
				s0.917-1.73,0.917-2.776c0-1.15-0.439-2.138-1.317-2.963c-0.439-0.397-0.928-0.721-1.467-0.973
				c-0.538-0.25-1.461-0.59-2.767-1.019c-0.921-0.292-1.637-0.553-2.148-0.784c-0.513-0.23-0.884-0.475-1.113-0.738
				c-0.23-0.261-0.346-0.553-0.346-0.878c0-0.564,0.285-1.021,0.855-1.372c0.569-0.35,1.325-0.525,2.265-0.525
				c1.318,0,2.708,0.439,4.172,1.317v-2.885C356.28,28.709,355.02,28.557,353.536,28.557 M340.197,43.807
				c-0.162-0.215-0.269-0.495-0.321-0.839s-0.078-0.899-0.078-1.662v-5.582c0-1.389,0.24-2.419,0.721-3.088
				c0.292-0.429,0.7-0.766,1.223-1.012c0.522-0.246,1.088-0.369,1.693-0.369c0.69,0,1.224,0.183,1.599,0.549v-3.12
				c-0.47-0.083-0.862-0.125-1.175-0.125c-0.879,0-1.662,0.223-2.353,0.666c-0.689,0.445-1.26,1.091-1.708,1.938v-2.792
				c-0.398,0.429-1.057,0.643-1.976,0.643h-2.352c0.439,0.334,0.739,0.611,0.901,0.831c0.162,0.219,0.267,0.486,0.314,0.8
				c0.047,0.314,0.071,0.884,0.071,1.71v8.953c0,0.816-0.024,1.383-0.071,1.701c-0.047,0.319-0.152,0.589-0.314,0.808
				c-0.163,0.219-0.462,0.497-0.901,0.831h5.614C340.654,44.3,340.36,44.021,340.197,43.807 M329.03,23.351
				c-0.418,0.408-0.626,0.899-0.626,1.474c0,0.595,0.2,1.1,0.603,1.513c0.402,0.413,0.897,0.62,1.483,0.62
				c0.606,0,1.11-0.207,1.513-0.62c0.402-0.412,0.604-0.917,0.604-1.513c0-0.565-0.198-1.053-0.595-1.467
				c-0.398-0.413-0.884-0.62-1.459-0.62C329.956,22.739,329.448,22.943,329.03,23.351 M330.112,29.012h-2.352
				c0.439,0.334,0.74,0.611,0.901,0.831c0.163,0.219,0.267,0.486,0.314,0.8c0.047,0.314,0.071,0.884,0.071,1.71v8.953
				c0,0.816-0.024,1.383-0.071,1.701c-0.047,0.319-0.151,0.589-0.314,0.808c-0.162,0.219-0.462,0.497-0.901,0.831h5.613
				c-0.428-0.345-0.724-0.624-0.886-0.838c-0.162-0.215-0.269-0.495-0.321-0.839c-0.052-0.345-0.078-0.899-0.078-1.662V28.368
				C331.691,28.798,331.032,29.012,330.112,29.012 M320.947,42.904c0.172,0.471,0.515,0.868,1.028,1.192
				c0.408,0.25,0.836,0.426,1.286,0.525c0.45,0.1,1.082,0.181,1.897,0.243l1.474-2.211c-0.93-0.031-1.605-0.214-2.022-0.549
				c-0.388-0.282-0.627-0.588-0.722-0.917c-0.094-0.329-0.141-0.974-0.141-1.936v-4.375c0-1.244-0.04-2.109-0.118-2.595
				c-0.078-0.486-0.264-0.97-0.557-1.45c-0.952-1.516-2.859-2.274-5.723-2.274c-0.816,0-1.6,0.073-2.353,0.219l-2.242,3.403
				c1.108-0.533,1.98-0.892,2.618-1.075c0.637-0.182,1.306-0.274,2.007-0.274c0.627,0,1.189,0.089,1.686,0.267
				c0.496,0.178,0.88,0.431,1.152,0.76c0.272,0.33,0.408,0.709,0.408,1.137c0,0.607-0.254,1.067-0.76,1.381
				c-0.507,0.313-1.53,0.622-3.066,0.925c-2.123,0.408-3.606,0.847-4.453,1.317c-0.576,0.304-1.035,0.772-1.38,1.403
				c-0.346,0.633-0.518,1.3-0.518,2c0,1.474,0.575,2.729,1.726,3.764c0.982,0.878,2.321,1.317,4.014,1.317
				c0.658,0,1.28-0.069,1.866-0.203l1.991-2.525c-0.962,0.293-1.809,0.439-2.54,0.439c-1.129,0-2.01-0.245-2.642-0.736
				c-0.633-0.491-0.948-1.166-0.948-2.023c0-1.338,0.815-2.205,2.446-2.602c1.222-0.283,2.009-0.471,2.359-0.565
				s0.669-0.191,0.957-0.29c0.287-0.098,0.624-0.243,1.012-0.431v4.375C320.689,41.645,320.775,42.434,320.947,42.904
				 M308.338,31.253c0.586,0,0.985,0.034,1.199,0.103c0.215,0.067,0.416,0.216,0.604,0.446v-2.995
				c-0.376,0.136-0.773,0.204-1.191,0.204h-3.434v-2.164c0-1.014,0.105-1.677,0.314-1.991c0.397-0.658,1.092-0.988,2.085-0.988
				c0.607,0,1.187,0.183,1.741,0.549l2.415-2.634c-0.941-0.157-1.715-0.236-2.321-0.236c-1.222,0-2.276,0.131-3.159,0.392
				c-0.884,0.262-1.639,0.669-2.266,1.224c-0.669,0.575-1.148,1.186-1.434,1.835c-0.288,0.648-0.431,1.438-0.431,2.368v1.646
				l-1.693,2.242h1.693v10.052c0,0.732-0.027,1.278-0.079,1.639c-0.052,0.361-0.16,0.653-0.321,0.878
				c-0.162,0.225-0.457,0.5-0.885,0.823h5.786c-0.241-0.146-0.408-0.272-0.502-0.376c-0.094-0.105-0.25-0.335-0.47-0.69
				c-0.126-0.24-0.223-0.499-0.29-0.776c-0.069-0.277-0.116-0.66-0.141-1.153c-0.027-0.491-0.04-0.992-0.04-1.505v-8.891H308.338z
				 M297.493,31.253c0.585,0,0.985,0.034,1.199,0.103c0.214,0.067,0.415,0.216,0.604,0.446v-2.995
				c-0.376,0.136-0.774,0.204-1.191,0.204h-3.434v-2.164c0-1.014,0.104-1.677,0.314-1.991c0.397-0.658,1.092-0.988,2.085-0.988
				c0.606,0,1.186,0.183,1.741,0.549l2.415-2.634c-0.941-0.157-1.715-0.236-2.321-0.236c-1.224,0-2.277,0.131-3.16,0.392
				c-0.883,0.262-1.638,0.669-2.265,1.224c-0.669,0.575-1.148,1.186-1.435,1.835c-0.287,0.648-0.431,1.438-0.431,2.368v1.646
				l-1.693,2.242h1.693v10.052c0,0.732-0.026,1.278-0.078,1.639c-0.052,0.361-0.159,0.653-0.321,0.878
				c-0.163,0.225-0.457,0.5-0.886,0.823h5.787c-0.241-0.146-0.408-0.272-0.502-0.376c-0.094-0.105-0.252-0.335-0.471-0.69
				c-0.125-0.24-0.222-0.499-0.29-0.776c-0.067-0.277-0.115-0.66-0.14-1.153c-0.027-0.491-0.04-0.992-0.04-1.505v-8.891H297.493z
				 M272.563,34.045l3.465-8.859l3.434,8.859H272.563z M282.316,41.399c0.386,0.983,0.58,1.615,0.58,1.897
				c0,0.262-0.065,0.469-0.196,0.62c-0.131,0.152-0.473,0.395-1.028,0.729h7.04c-0.773-0.459-1.377-0.992-1.81-1.599
				c-0.435-0.606-0.923-1.594-1.467-2.963l-7.135-17.75h-5.394c0.689,0.334,1.035,0.773,1.035,1.317
				c0,0.324-0.132,0.836-0.393,1.537l-5.974,14.897c-0.564,1.463-1.032,2.464-1.403,3.003c-0.37,0.538-0.954,1.058-1.748,1.56h6.241
				c-0.46-0.25-0.779-0.483-0.956-0.698c-0.179-0.214-0.267-0.483-0.267-0.807c0-0.491,0.125-1.072,0.376-1.741l1.929-5.175h8.578
				L282.316,41.399z M250.609,28.557c-1.463,0-2.752,0.194-3.865,0.58c-1.113,0.386-2.125,0.999-3.034,1.835
				c-1.84,1.693-2.76,3.748-2.76,6.163c0,1.128,0.229,2.187,0.689,3.175c0.46,0.988,1.108,1.84,1.945,2.556
				c0.836,0.716,1.811,1.267,2.925,1.654c1.113,0.386,2.344,0.58,3.692,0.58c1.84,0,3.283-0.203,4.328-0.611l1.992-3.309
				c-0.565,0.366-1.137,0.672-1.717,0.917c-0.58,0.245-1.158,0.426-1.733,0.541c-0.575,0.116-1.15,0.172-1.725,0.172
				c-1.307,0-2.486-0.274-3.537-0.823c-1.05-0.548-1.879-1.315-2.485-2.297c-0.607-0.982-0.91-2.069-0.91-3.262
				c0-1.108,0.232-2.087,0.698-2.939c0.465-0.852,1.134-1.508,2.007-1.969c0.872-0.459,1.858-0.689,2.956-0.689
				c1.693,0,3.105,0.549,4.234,1.646V28.98C253.097,28.698,251.863,28.557,250.609,28.557 M234.811,23.351
				c-0.419,0.408-0.627,0.899-0.627,1.474c0,0.595,0.201,1.1,0.604,1.513c0.402,0.413,0.896,0.62,1.482,0.62
				c0.607,0,1.111-0.207,1.514-0.62c0.402-0.412,0.604-0.917,0.604-1.513c0-0.565-0.199-1.053-0.596-1.467
				c-0.397-0.413-0.883-0.62-1.458-0.62C235.736,22.739,235.229,22.943,234.811,23.351 M235.893,29.012h-2.352
				c0.439,0.334,0.739,0.611,0.901,0.831c0.162,0.219,0.267,0.486,0.314,0.8c0.047,0.314,0.071,0.884,0.071,1.71v8.953
				c0,0.816-0.024,1.383-0.071,1.701c-0.047,0.319-0.152,0.589-0.314,0.808c-0.163,0.219-0.462,0.497-0.901,0.831h5.614
				c-0.429-0.345-0.725-0.624-0.886-0.838c-0.162-0.215-0.27-0.495-0.321-0.839c-0.052-0.345-0.079-0.899-0.079-1.662V28.368
				C237.471,28.798,236.813,29.012,235.893,29.012 M206.618,29.012h-2.352c0.439,0.334,0.74,0.611,0.901,0.831
				c0.163,0.219,0.267,0.486,0.314,0.8c0.047,0.314,0.071,0.884,0.071,1.71v8.953c0,0.816-0.024,1.383-0.071,1.701
				c-0.047,0.319-0.151,0.589-0.314,0.808c-0.162,0.219-0.462,0.497-0.901,0.831h5.614c-0.417-0.314-0.711-0.582-0.878-0.807
				c-0.167-0.225-0.277-0.513-0.33-0.863c-0.052-0.35-0.078-0.907-0.078-1.67V35.3c0-0.69,0.042-1.215,0.125-1.576
				c0.083-0.361,0.236-0.703,0.455-1.028c0.324-0.481,0.769-0.852,1.333-1.113c0.565-0.261,1.182-0.392,1.851-0.392
				c0.522,0,1.043,0.1,1.56,0.298c0.518,0.199,0.939,0.476,1.262,0.832c0.69,0.72,1.035,1.877,1.035,3.465v5.519
				c0,0.743-0.026,1.294-0.078,1.655c-0.052,0.36-0.157,0.648-0.314,0.862c-0.156,0.214-0.455,0.489-0.894,0.823h5.645
				c-0.606-0.481-0.977-0.888-1.113-1.222c-0.136-0.335-0.203-1.04-0.203-2.117v-5.786c0-0.785,0.02-1.331,0.063-1.639
				c0.041-0.308,0.14-0.614,0.298-0.917c0.314-0.586,0.778-1.048,1.396-1.387c0.617-0.339,1.286-0.51,2.007-0.51
				c1.295,0,2.305,0.439,3.026,1.317c0.303,0.408,0.522,0.888,0.658,1.443c0.136,0.554,0.203,1.302,0.203,2.243v5.237
				c0,0.743-0.026,1.294-0.078,1.655c-0.052,0.36-0.16,0.65-0.321,0.87c-0.163,0.219-0.468,0.491-0.917,0.815h5.88
				c-0.428-0.178-0.75-0.381-0.964-0.611c-0.214-0.23-0.361-0.555-0.439-0.972c-0.078-0.419-0.118-1.004-0.118-1.757v-6.068
				c0-1.087-0.06-1.942-0.18-2.564c-0.121-0.622-0.328-1.168-0.62-1.639c-0.45-0.762-1.148-1.366-2.093-1.811
				c-0.946-0.443-2.005-0.666-3.176-0.666c-0.731,0-1.403,0.1-2.015,0.298c-0.611,0.199-1.173,0.507-1.686,0.926
				c-0.512,0.417-1.055,1.003-1.63,1.756c-0.638-1.035-1.365-1.79-2.179-2.266c-0.816-0.475-1.809-0.713-2.98-0.713
				c-1.076,0-1.996,0.203-2.76,0.611c-0.763,0.408-1.494,1.093-2.194,2.054v-2.854C208.072,28.798,207.465,29.012,206.618,29.012
				 M191.47,31.567c0.784-0.658,1.75-0.987,2.901-0.987c2.394,0,3.831,1.264,4.312,3.795h-8.766
				C190.168,33.162,190.685,32.226,191.47,31.567 M202.242,35.942c0-1.066-0.194-2.051-0.58-2.956
				c-0.386-0.903-0.925-1.686-1.615-2.344c-0.689-0.658-1.505-1.17-2.446-1.536c-0.941-0.366-1.965-0.549-3.073-0.549
				c-1.129,0-2.172,0.165-3.128,0.493c-0.957,0.33-1.795,0.819-2.517,1.467c-0.555,0.502-1.04,1.095-1.459,1.78
				c-0.417,0.684-0.74,1.411-0.963,2.179c-0.226,0.768-0.337,1.545-0.337,2.328c0,1.599,0.405,3.032,1.215,4.297
				c0.81,1.264,1.949,2.247,3.418,2.948c1.469,0.7,3.124,1.05,4.963,1.05c0.544,0,1.084-0.026,1.624-0.078
				c0.537-0.052,1.05-0.139,1.536-0.259c0.486-0.12,0.996-0.279,1.529-0.478l1.835-3.23c-0.617,0.417-1.213,0.755-1.788,1.012
				c-0.575,0.256-1.189,0.444-1.842,0.564s-1.336,0.18-2.047,0.18c-1.327,0-2.498-0.25-3.512-0.753
				c-1.014-0.502-1.798-1.228-2.352-2.179c-0.555-0.951-0.863-2.08-0.925-3.387h12.466V35.942z M177.521,29.019
				c-0.826-0.308-1.762-0.462-2.807-0.462c-1.108,0-2.143,0.209-3.104,0.627c-0.962,0.419-1.809,1.008-2.54,1.772
				c-0.732,0.763-1.296,1.65-1.693,2.658c-0.398,1.009-0.596,2.094-0.596,3.254c0,1.442,0.306,2.751,0.917,3.928
				s1.492,2.161,2.642,2.956c0.7,0.46,1.467,0.8,2.297,1.019c0.831,0.219,1.769,0.33,2.814,0.33c0.586,0,1.151-0.078,1.693-0.236
				l1.961-3.041c-0.565,0.355-1.062,0.598-1.49,0.729c-0.429,0.131-0.925,0.196-1.49,0.196c-1.119,0-2.122-0.277-3.01-0.832
				c-0.888-0.553-1.59-1.327-2.101-2.321c-0.513-0.992-0.769-2.091-0.769-3.293c0-1.045,0.212-1.991,0.635-2.838
				c0.424-0.847,1.015-1.508,1.773-1.984c0.758-0.475,1.617-0.714,2.579-0.714c0.763,0,1.485,0.163,2.164,0.486
				c0.68,0.324,1.239,0.785,1.677,1.381c0.419,0.533,0.685,1.052,0.8,1.56c0.116,0.507,0.172,1.419,0.172,2.736v7.715h4.328
				c-0.595-0.47-0.959-0.876-1.09-1.215c-0.131-0.339-0.196-1.048-0.196-2.125V21.689c-0.397,0.428-1.061,0.643-1.991,0.643h-2.337
				c0.429,0.323,0.724,0.595,0.886,0.815c0.162,0.219,0.269,0.515,0.321,0.886c0.052,0.371,0.078,0.917,0.078,1.639v4.876
				C179.189,29.837,178.346,29.328,177.521,29.019 M160.444,42.904c0.172,0.471,0.515,0.868,1.027,1.192
				c0.408,0.25,0.836,0.426,1.287,0.525c0.449,0.1,1.081,0.181,1.897,0.243l1.474-2.211c-0.93-0.031-1.605-0.214-2.023-0.549
				c-0.386-0.282-0.627-0.588-0.721-0.917c-0.093-0.329-0.14-0.974-0.14-1.936v-4.375c0-1.244-0.04-2.109-0.118-2.595
				c-0.079-0.486-0.264-0.97-0.557-1.45c-0.952-1.516-2.859-2.274-5.724-2.274c-0.816,0-1.599,0.073-2.352,0.219l-2.243,3.403
				c1.108-0.533,1.981-0.892,2.618-1.075c0.638-0.182,1.307-0.274,2.007-0.274c0.627,0,1.189,0.089,1.686,0.267
				c0.497,0.178,0.881,0.431,1.153,0.76c0.272,0.33,0.408,0.709,0.408,1.137c0,0.607-0.254,1.067-0.761,1.381
				c-0.507,0.313-1.529,0.622-3.066,0.925c-2.122,0.408-3.606,0.847-4.453,1.317c-0.575,0.304-1.035,0.772-1.38,1.403
				c-0.345,0.633-0.517,1.3-0.517,2c0,1.474,0.575,2.729,1.725,3.764c0.983,0.878,2.321,1.317,4.014,1.317
				c0.658,0,1.28-0.069,1.866-0.203l1.992-2.525c-0.962,0.293-1.809,0.439-2.54,0.439c-1.129,0-2.01-0.245-2.643-0.736
				c-0.633-0.491-0.948-1.166-0.948-2.023c0-1.338,0.816-2.205,2.446-2.602c1.224-0.283,2.009-0.471,2.36-0.565
				c0.35-0.094,0.669-0.191,0.956-0.29c0.288-0.098,0.625-0.243,1.012-0.431v4.375C160.185,41.645,160.271,42.434,160.444,42.904
				 M142.745,28.557c-1.464,0-2.752,0.194-3.865,0.58c-1.113,0.386-2.125,0.999-3.035,1.835c-1.839,1.693-2.76,3.748-2.76,6.163
				c0,1.128,0.23,2.187,0.69,3.175c0.459,0.988,1.108,1.84,1.944,2.556c0.836,0.716,1.811,1.267,2.925,1.654
				c1.113,0.386,2.344,0.58,3.693,0.58c1.84,0,3.282-0.203,4.328-0.611l1.991-3.309c-0.564,0.366-1.137,0.672-1.717,0.917
				c-0.58,0.245-1.157,0.426-1.732,0.541c-0.576,0.116-1.151,0.172-1.726,0.172c-1.307,0-2.486-0.274-3.536-0.823
				c-1.05-0.548-1.88-1.315-2.486-2.297c-0.606-0.982-0.909-2.069-0.909-3.262c0-1.108,0.232-2.087,0.697-2.939
				c0.466-0.852,1.135-1.508,2.007-1.969c0.874-0.459,1.858-0.689,2.957-0.689c1.693,0,3.104,0.549,4.234,1.646V28.98
				C145.232,28.698,143.999,28.557,142.745,28.557 M117.002,34.045l3.465-8.859l3.434,8.859H117.002z M126.755,41.399
				c0.386,0.983,0.58,1.615,0.58,1.897c0,0.262-0.065,0.469-0.196,0.62c-0.131,0.152-0.473,0.395-1.028,0.729h7.042
				c-0.774-0.459-1.378-0.992-1.811-1.599c-0.435-0.606-0.923-1.594-1.467-2.963l-7.135-17.75h-5.394
				c0.689,0.334,1.035,0.773,1.035,1.317c0,0.324-0.131,0.836-0.392,1.537l-5.975,14.897c-0.564,1.463-1.032,2.464-1.403,3.003
				c-0.37,0.538-0.954,1.058-1.748,1.56h6.241c-0.46-0.25-0.778-0.483-0.956-0.698c-0.179-0.214-0.267-0.483-0.267-0.807
				c0-0.491,0.125-1.072,0.376-1.741l1.929-5.175h8.578L126.755,41.399z"/>
		</g>
	</g>
</g>
<g id="Web_Header">
	<g>
		<g>
			<path style="fill:#00275B;" d="M82.148,62.247c0.572,0.559,0.858,1.244,0.858,2.055c0,0.809-0.285,1.493-0.856,2.053
				c-0.571,0.559-1.269,0.838-2.098,0.838c-0.828,0-1.525-0.279-2.097-0.838c-0.569-0.56-0.854-1.244-0.854-2.053
				c0-0.811,0.286-1.496,0.856-2.055c0.573-0.56,1.27-0.839,2.095-0.839C80.878,61.408,81.577,61.687,82.148,62.247 M81.732,62.595
				c-0.456-0.465-1.017-0.697-1.68-0.697s-1.221,0.232-1.677,0.697c-0.458,0.465-0.685,1.035-0.685,1.707
				c0,0.673,0.227,1.243,0.685,1.706c0.456,0.464,1.014,0.695,1.677,0.695c0.661,0,1.221-0.231,1.679-0.695
				c0.457-0.463,0.686-1.033,0.686-1.706C82.417,63.63,82.189,63.06,81.732,62.595 M78.772,62.629h0.265h1.075
				c0.362,0,0.644,0.08,0.85,0.239c0.205,0.161,0.308,0.384,0.308,0.668c0,0.307-0.103,0.552-0.309,0.727
				c-0.154,0.131-0.351,0.213-0.592,0.246l0.962,1.464h-0.304h-0.305l-0.866-1.445l-0.559,0.003v1.442h-0.262h-0.263V62.629z
				 M79.298,64.085h0.712c0.248,0,0.429-0.044,0.543-0.132c0.115-0.088,0.171-0.227,0.171-0.416c0-0.166-0.056-0.287-0.171-0.365
				c-0.114-0.078-0.295-0.117-0.543-0.117h-0.712V64.085z"/>
		</g>
		<polygon style="fill:#FFFFFF;" points="14.726,0 14.717,22.714 17.069,22.709 7.812,47.291 0,47.281 0,70 75.828,70 
			75.828,47.251 67.96,47.24 58.784,22.728 61.086,22.738 61.086,0.007 		"/>
		<g>
			<path style="fill:#BD2036;" d="M37.9,8.489l16.242,42.114c0,0,2.081,5.125,5.46,5.125H47.777c0,0,0.593,0.087,1.186-0.9
				c0.339-0.563,0.052-1.408,0.052-1.408l-3.656-9.401H37.9h-7.427L26.81,53.42c0,0-0.279,0.845,0.059,1.408
				c0.59,0.987,1.182,0.9,1.182,0.9H16.226c3.378,0,5.461-5.125,5.461-5.125L37.9,8.489z"/>
		</g>
		<polygon style="fill:#00275B;" points="37.914,8.436 52.559,8.436 52.559,14.293 46.475,14.293 62.471,55.521 67.202,55.521 
			67.202,61.587 47.376,61.587 47.376,55.686 41.811,55.686 41.811,67.257 73.103,67.257 73.103,50.004 66.076,50.016 
			54.812,19.986 58.35,19.986 58.35,2.743 37.914,2.743 17.478,2.743 17.478,19.986 21.017,19.986 9.752,49.978 2.725,50.004 
			2.725,67.257 34.019,67.257 34.019,55.686 28.452,55.686 28.452,61.587 8.626,61.587 8.626,55.521 13.357,55.521 29.353,14.293 
			23.27,14.293 23.27,8.436 		"/>
		<polygon style="fill:#FFFFFF;" points="37.887,39.554 43.609,39.554 38,24.781 32.192,39.554 		"/>
		<rect x="92.758" style="fill:#00275B;" width="1.357" height="99.148"/>
		<g>
			<path style="fill:#00275B;" d="M276.375,78.82c0.779-0.654,1.739-0.981,2.881-0.981c2.376,0,3.804,1.256,4.281,3.768h-8.703
				C275.083,80.403,275.597,79.474,276.375,78.82 M287.072,83.164c0-1.059-0.192-2.037-0.576-2.935
				c-0.385-0.898-0.919-1.674-1.604-2.328s-1.495-1.162-2.429-1.526c-0.934-0.363-1.952-0.545-3.052-0.545
				c-1.121,0-2.156,0.164-3.106,0.491c-0.95,0.327-1.783,0.812-2.499,1.456c-0.55,0.498-1.033,1.087-1.448,1.767
				s-0.734,1.401-0.957,2.164c-0.224,0.763-0.335,1.534-0.335,2.312c0,1.588,0.402,3.01,1.207,4.266
				c0.804,1.256,1.935,2.232,3.394,2.927c1.458,0.696,3.101,1.043,4.928,1.043c0.539,0,1.076-0.026,1.611-0.077
				c0.535-0.052,1.043-0.138,1.526-0.257c0.483-0.119,0.989-0.278,1.518-0.475l1.822-3.208c-0.613,0.416-1.205,0.751-1.775,1.005
				c-0.571,0.254-1.181,0.441-1.83,0.56c-0.649,0.12-1.326,0.179-2.032,0.179c-1.318,0-2.481-0.249-3.487-0.747
				c-1.007-0.498-1.786-1.22-2.336-2.164c-0.55-0.945-0.856-2.066-0.918-3.363h12.378V83.164z M265.312,90.972
				c-0.161-0.213-0.267-0.49-0.319-0.833c-0.052-0.343-0.078-0.893-0.078-1.65v-5.543c0-1.381,0.239-2.403,0.716-3.068
				c0.291-0.425,0.695-0.76,1.215-1.004c0.518-0.244,1.079-0.366,1.681-0.366c0.685,0,1.214,0.182,1.588,0.545v-3.098
				c-0.467-0.083-0.856-0.125-1.168-0.125c-0.871,0-1.65,0.221-2.335,0.662c-0.685,0.441-1.251,1.082-1.697,1.923v-2.772
				c-0.395,0.426-1.049,0.639-1.962,0.639h-2.335c0.436,0.332,0.734,0.607,0.895,0.825c0.161,0.218,0.265,0.483,0.311,0.794
				c0.047,0.312,0.07,0.877,0.07,1.697v8.891c0,0.809-0.023,1.372-0.07,1.689c-0.046,0.317-0.15,0.584-0.311,0.802
				c-0.161,0.218-0.459,0.493-0.895,0.825h5.574C265.766,91.462,265.473,91.185,265.312,90.972 M258.553,91.805
				c-0.426-0.343-0.719-0.62-0.88-0.833s-0.267-0.49-0.319-0.833c-0.052-0.343-0.078-0.893-0.078-1.65V75.643
				c-0.395,0.426-1.038,0.639-1.931,0.639h-2.366c0.425,0.322,0.718,0.592,0.879,0.809c0.161,0.218,0.268,0.512,0.32,0.88
				c0.051,0.369,0.078,0.911,0.078,1.627v6.026c0,1.214-0.353,2.187-1.059,2.919c-0.706,0.732-1.651,1.098-2.834,1.098
				c-1.277,0-2.273-0.426-2.989-1.277c-0.302-0.394-0.517-0.846-0.646-1.355c-0.13-0.508-0.195-1.172-0.195-1.992v-9.374
				c-0.395,0.426-1.064,0.639-2.009,0.639h-2.288c0.436,0.332,0.734,0.607,0.895,0.825c0.161,0.218,0.265,0.483,0.311,0.794
				c0.047,0.312,0.07,0.877,0.07,1.697v6.026c0,1.899,0.317,3.321,0.95,4.266c0.498,0.747,1.186,1.329,2.063,1.744
				s1.871,0.622,2.982,0.622c0.757,0,1.393-0.08,1.907-0.241c0.514-0.161,0.986-0.415,1.417-0.763
				c0.43-0.347,0.947-0.895,1.549-1.642v2.195H258.553z M238.604,78.508c0.571,0,1.002,0.045,1.293,0.133
				c0.29,0.088,0.56,0.246,0.809,0.475v-3.037c-0.322,0.135-0.981,0.203-1.977,0.203h-2.616v-5.014h-1.308v0.421
				c0,1.889-0.415,3.269-1.245,4.141c-0.696,0.779-1.62,1.267-2.772,1.464v1.214h2.305v7.427c0,1.08,0.031,1.889,0.093,2.429
				c0.062,0.54,0.176,0.984,0.343,1.331c0.165,0.348,0.425,0.709,0.778,1.082c0.944,0.987,2.091,1.479,3.441,1.479
				c0.425,0,0.83-0.067,1.214-0.202l1.744-2.382c-0.498,0.187-0.965,0.28-1.401,0.28c-1.1,0-1.962-0.384-2.585-1.152
				c-0.239-0.301-0.399-0.664-0.482-1.09c-0.084-0.425-0.125-1.11-0.125-2.055v-7.147H238.604z M224.872,75.83
				c-1.453,0-2.732,0.193-3.838,0.576c-1.105,0.385-2.109,0.992-3.013,1.822c-1.827,1.682-2.74,3.721-2.74,6.119
				c0,1.121,0.228,2.172,0.685,3.153s1.1,1.827,1.931,2.538c0.83,0.711,1.798,1.259,2.904,1.642
				c1.105,0.384,2.327,0.576,3.666,0.576c1.827,0,3.26-0.202,4.298-0.607l1.977-3.285c-0.56,0.363-1.129,0.667-1.705,0.911
				c-0.576,0.244-1.15,0.423-1.72,0.537c-0.571,0.114-1.142,0.171-1.713,0.171c-1.298,0-2.468-0.272-3.511-0.817
				s-1.866-1.305-2.468-2.281c-0.602-0.976-0.903-2.055-0.903-3.239c0-1.1,0.231-2.073,0.693-2.919
				c0.462-0.846,1.126-1.497,1.993-1.954c0.866-0.457,1.845-0.685,2.935-0.685c1.681,0,3.083,0.545,4.204,1.635v-3.472
				C227.342,75.97,226.118,75.83,224.872,75.83 M202.554,78.82c0.779-0.654,1.739-0.981,2.881-0.981
				c2.376,0,3.804,1.256,4.281,3.768h-8.703C201.262,80.403,201.776,79.474,202.554,78.82 M213.251,83.164
				c0-1.059-0.192-2.037-0.576-2.935c-0.385-0.898-0.919-1.674-1.604-2.328c-0.685-0.654-1.495-1.162-2.429-1.526
				c-0.934-0.363-1.952-0.545-3.052-0.545c-1.121,0-2.156,0.164-3.106,0.491c-0.95,0.327-1.783,0.812-2.499,1.456
				c-0.55,0.498-1.033,1.087-1.448,1.767c-0.415,0.68-0.734,1.401-0.957,2.164c-0.224,0.763-0.335,1.534-0.335,2.312
				c0,1.588,0.402,3.01,1.207,4.266c0.804,1.256,1.935,2.232,3.394,2.927c1.458,0.696,3.101,1.043,4.928,1.043
				c0.539,0,1.076-0.026,1.611-0.077c0.535-0.052,1.043-0.138,1.526-0.257c0.483-0.119,0.989-0.278,1.518-0.475l1.822-3.208
				c-0.613,0.416-1.205,0.751-1.775,1.005c-0.571,0.254-1.181,0.441-1.83,0.56c-0.649,0.12-1.326,0.179-2.032,0.179
				c-1.318,0-2.481-0.249-3.487-0.747c-1.007-0.498-1.786-1.22-2.336-2.164c-0.55-0.945-0.856-2.066-0.918-3.363h12.378V83.164z
				 M194.192,78.508c0.571,0,1.002,0.045,1.293,0.133c0.29,0.088,0.56,0.246,0.809,0.475v-3.037
				c-0.322,0.135-0.981,0.203-1.977,0.203h-2.616v-5.014h-1.308v0.421c0,1.889-0.415,3.269-1.245,4.141
				c-0.696,0.779-1.62,1.267-2.772,1.464v1.214h2.305v7.427c0,1.08,0.031,1.889,0.093,2.429c0.062,0.54,0.176,0.984,0.342,1.331
				c0.166,0.348,0.426,0.709,0.779,1.082c0.944,0.987,2.091,1.479,3.441,1.479c0.425,0,0.83-0.067,1.214-0.202l1.744-2.382
				c-0.498,0.187-0.965,0.28-1.401,0.28c-1.1,0-1.962-0.384-2.585-1.152c-0.239-0.301-0.399-0.664-0.482-1.09
				c-0.084-0.425-0.125-1.11-0.125-2.055v-7.147H194.192z M180.896,70.661c-0.416,0.405-0.623,0.893-0.623,1.464
				c0,0.591,0.2,1.092,0.599,1.502c0.4,0.41,0.89,0.615,1.472,0.615c0.602,0,1.102-0.205,1.502-0.615c0.4-0.41,0.6-0.911,0.6-1.502
				c0-0.561-0.198-1.046-0.592-1.456c-0.395-0.41-0.877-0.615-1.448-0.615C181.814,70.054,181.311,70.256,180.896,70.661
				 M181.97,76.282h-2.335c0.436,0.332,0.734,0.607,0.895,0.825c0.161,0.218,0.265,0.483,0.311,0.794
				c0.047,0.312,0.07,0.877,0.07,1.697v8.891c0,0.809-0.023,1.372-0.07,1.689c-0.046,0.317-0.15,0.584-0.311,0.802
				c-0.161,0.218-0.459,0.493-0.895,0.825h5.574c-0.426-0.343-0.719-0.62-0.88-0.833c-0.161-0.213-0.267-0.49-0.319-0.833
				c-0.052-0.343-0.078-0.893-0.078-1.65V75.643C183.537,76.069,182.883,76.282,181.97,76.282 M163.572,69.649h-2.319
				c0.436,0.332,0.734,0.605,0.895,0.818c0.161,0.212,0.265,0.474,0.311,0.786c0.047,0.311,0.07,0.882,0.07,1.712v15.524
				c0,0.809-0.023,1.372-0.07,1.689c-0.046,0.317-0.15,0.584-0.311,0.802c-0.161,0.218-0.459,0.493-0.895,0.825h5.605
				c-0.457-0.353-0.763-0.633-0.919-0.841c-0.156-0.207-0.259-0.488-0.311-0.841c-0.052-0.352-0.078-0.897-0.078-1.634v-6.15
				c0-0.893,0.033-1.495,0.101-1.807c0.067-0.311,0.236-0.633,0.506-0.965c0.374-0.436,0.838-0.768,1.394-0.996
				c0.555-0.229,1.165-0.343,1.829-0.343c1.453,0,2.538,0.478,3.254,1.432c0.249,0.312,0.418,0.668,0.506,1.067
				c0.088,0.4,0.132,0.999,0.132,1.798v5.964c0,0.737-0.026,1.284-0.077,1.642c-0.052,0.358-0.159,0.646-0.32,0.864
				c-0.161,0.218-0.464,0.488-0.91,0.81h5.605c-0.592-0.477-0.953-0.885-1.082-1.222c-0.13-0.337-0.195-1.036-0.195-2.094v-6.991
				c0-0.903-0.06-1.599-0.179-2.087c-0.119-0.487-0.335-0.949-0.646-1.385c-0.343-0.467-0.761-0.864-1.254-1.191
				c-0.493-0.327-1.048-0.577-1.666-0.748c-0.617-0.171-1.268-0.257-1.954-0.257c-1.048,0-2.026,0.193-2.934,0.576
				c-0.909,0.385-1.612,0.903-2.11,1.557v-8.952C165.155,69.436,164.496,69.649,163.572,69.649 M154.717,75.83
				c-1.453,0-2.733,0.193-3.838,0.576c-1.105,0.385-2.11,0.992-3.013,1.822c-1.827,1.682-2.74,3.721-2.74,6.119
				c0,1.121,0.228,2.172,0.685,3.153s1.1,1.827,1.931,2.538c0.83,0.711,1.798,1.259,2.903,1.642
				c1.106,0.384,2.328,0.576,3.667,0.576c1.827,0,3.259-0.202,4.297-0.607l1.978-3.285c-0.561,0.363-1.129,0.667-1.705,0.911
				c-0.576,0.244-1.15,0.423-1.721,0.537c-0.571,0.114-1.142,0.171-1.712,0.171c-1.298,0-2.468-0.272-3.511-0.817
				s-1.866-1.305-2.468-2.281s-0.903-2.055-0.903-3.239c0-1.1,0.231-2.073,0.693-2.919c0.461-0.846,1.126-1.497,1.993-1.954
				c0.866-0.457,1.845-0.685,2.935-0.685c1.681,0,3.082,0.545,4.203,1.635v-3.472C157.187,75.97,155.963,75.83,154.717,75.83
				 M139.503,90.972c-0.161-0.213-0.268-0.49-0.32-0.833c-0.052-0.343-0.077-0.893-0.077-1.65v-5.543
				c0-1.381,0.238-2.403,0.716-3.068c0.29-0.425,0.695-0.76,1.214-1.004c0.519-0.244,1.08-0.366,1.682-0.366
				c0.685,0,1.214,0.182,1.588,0.545v-3.098c-0.467-0.083-0.856-0.125-1.168-0.125c-0.872,0-1.65,0.221-2.335,0.662
				c-0.685,0.441-1.251,1.082-1.697,1.923v-2.772c-0.395,0.426-1.049,0.639-1.962,0.639h-2.336c0.436,0.332,0.735,0.607,0.896,0.825
				c0.16,0.218,0.264,0.483,0.311,0.794c0.047,0.312,0.07,0.877,0.07,1.697v8.891c0,0.809-0.023,1.372-0.07,1.689
				s-0.151,0.584-0.311,0.802c-0.161,0.218-0.46,0.493-0.896,0.825h5.574C139.957,91.462,139.663,91.185,139.503,90.972
				 M117.259,81.28l3.441-8.797l3.409,8.797H117.259z M126.943,88.582c0.384,0.976,0.576,1.604,0.576,1.884
				c0,0.26-0.065,0.465-0.195,0.615c-0.129,0.151-0.469,0.392-1.019,0.724h6.99c-0.768-0.457-1.367-0.986-1.798-1.588
				c-0.431-0.602-0.916-1.583-1.456-2.943l-7.084-17.625h-5.356c0.685,0.332,1.028,0.768,1.028,1.308c0,0.322-0.13,0.831-0.39,1.526
				l-5.932,14.791c-0.56,1.453-1.025,2.447-1.393,2.982c-0.369,0.534-0.947,1.051-1.736,1.549h6.197
				c-0.457-0.249-0.774-0.48-0.95-0.693c-0.177-0.213-0.265-0.48-0.265-0.802c0-0.488,0.125-1.064,0.374-1.728l1.915-5.138h8.517
				L126.943,88.582z"/>
			<path style="fill:#00275B;" d="M415.824,45.604c0.778-0.654,1.738-0.981,2.88-0.981c2.377,0,3.804,1.256,4.282,3.768h-8.703
				C414.532,47.187,415.045,46.258,415.824,45.604 M426.52,49.948c0-1.059-0.192-2.037-0.576-2.935
				c-0.384-0.898-0.918-1.674-1.603-2.328s-1.495-1.162-2.429-1.526c-0.934-0.363-1.952-0.545-3.052-0.545
				c-1.121,0-2.156,0.164-3.106,0.491c-0.95,0.327-1.783,0.812-2.499,1.456c-0.55,0.498-1.033,1.087-1.448,1.767
				c-0.415,0.68-0.735,1.401-0.958,2.164s-0.334,1.534-0.334,2.312c0,1.588,0.402,3.011,1.206,4.266
				c0.805,1.256,1.936,2.232,3.394,2.927c1.459,0.696,3.101,1.044,4.928,1.044c0.54,0,1.077-0.026,1.612-0.078
				c0.534-0.052,1.043-0.138,1.526-0.257c0.482-0.119,0.988-0.278,1.518-0.475l1.821-3.207c-0.612,0.415-1.204,0.75-1.775,1.004
				c-0.571,0.254-1.18,0.441-1.829,0.56c-0.649,0.12-1.326,0.179-2.032,0.179c-1.318,0-2.481-0.249-3.488-0.747
				c-1.006-0.498-1.785-1.219-2.335-2.164c-0.55-0.945-0.856-2.066-0.919-3.363h12.378V49.948z M400.311,59.041
				c1.516,0,2.894-0.369,4.134-1.106c1.24-0.737,2.211-1.746,2.912-3.028c0.7-1.282,1.051-2.722,1.051-4.321
				c0-1.131-0.187-2.182-0.561-3.153c-0.374-0.97-0.898-1.803-1.572-2.499c-0.706-0.705-1.565-1.269-2.577-1.689
				c-1.012-0.42-2.022-0.631-3.029-0.631c-0.716,0-1.427,0.097-2.133,0.288c-0.706,0.193-1.346,0.47-1.923,0.833
				c-0.576,0.364-1.077,0.8-1.502,1.308v-2.615c-0.415,0.425-1.074,0.638-1.977,0.638h-2.32c0.436,0.332,0.734,0.607,0.895,0.825
				c0.161,0.218,0.265,0.483,0.311,0.794c0.047,0.312,0.07,0.877,0.07,1.697v15.835c0,0.789-0.033,1.362-0.101,1.72
				c-0.067,0.358-0.184,0.644-0.35,0.857c-0.166,0.212-0.441,0.438-0.825,0.677h5.574c-0.395-0.239-0.675-0.467-0.841-0.685
				c-0.166-0.218-0.28-0.506-0.343-0.864c-0.062-0.358-0.093-0.927-0.093-1.705V49.823c0-0.757,0.06-1.37,0.179-1.837
				c0.119-0.467,0.335-0.898,0.646-1.292c0.457-0.561,1.036-1.005,1.736-1.331c0.701-0.327,1.43-0.491,2.188-0.491
				c1.017,0,1.91,0.255,2.678,0.763c0.768,0.509,1.365,1.228,1.79,2.156c0.426,0.93,0.639,1.975,0.639,3.138
				c0,1.214-0.208,2.263-0.623,3.145s-1.015,1.552-1.798,2.008c-0.784,0.457-1.731,0.685-2.842,0.685
				c-0.654,0-1.256-0.067-1.806-0.202c-0.55-0.135-1.204-0.374-1.962-0.716l1.822,2.74C398.599,58.89,399.45,59.041,400.311,59.041
				 M384.385,56.861c0.171,0.467,0.511,0.862,1.02,1.183c0.404,0.249,0.83,0.423,1.276,0.522c0.446,0.098,1.075,0.179,1.884,0.241
				l1.464-2.195c-0.924-0.031-1.594-0.213-2.009-0.545c-0.384-0.28-0.623-0.584-0.716-0.911c-0.093-0.327-0.14-0.968-0.14-1.923
				v-4.344c0-1.235-0.039-2.094-0.117-2.577c-0.078-0.482-0.262-0.962-0.553-1.44c-0.944-1.505-2.839-2.258-5.683-2.258
				c-0.809,0-1.588,0.073-2.335,0.218l-2.227,3.379c1.101-0.529,1.967-0.885,2.601-1.066c0.633-0.182,1.297-0.273,1.993-0.273
				c0.622,0,1.18,0.088,1.673,0.265c0.493,0.176,0.875,0.428,1.145,0.755c0.27,0.327,0.405,0.703,0.405,1.129
				c0,0.602-0.252,1.058-0.756,1.37c-0.503,0.311-1.518,0.618-3.043,0.918c-2.108,0.405-3.582,0.841-4.422,1.308
				c-0.571,0.302-1.028,0.766-1.37,1.394c-0.343,0.628-0.514,1.29-0.514,1.985c0,1.464,0.57,2.709,1.712,3.737
				c0.976,0.872,2.305,1.308,3.986,1.308c0.654,0,1.272-0.068,1.853-0.203l1.977-2.507c-0.955,0.291-1.795,0.436-2.522,0.436
				c-1.121,0-1.995-0.243-2.623-0.731c-0.629-0.488-0.942-1.158-0.942-2.009c0-1.328,0.809-2.19,2.429-2.584
				c1.214-0.281,1.995-0.468,2.343-0.561c0.347-0.093,0.664-0.189,0.95-0.288c0.285-0.099,0.62-0.241,1.004-0.428v4.344
				C384.128,55.61,384.213,56.394,384.385,56.861 M366.823,42.614c-1.453,0-2.732,0.193-3.838,0.577
				c-1.105,0.384-2.109,0.991-3.012,1.821c-1.827,1.682-2.741,3.721-2.741,6.119c0,1.121,0.229,2.172,0.685,3.153
				c0.457,0.981,1.101,1.827,1.931,2.538c0.83,0.711,1.798,1.259,2.904,1.643c1.105,0.383,2.328,0.576,3.667,0.576
				c1.826,0,3.259-0.203,4.297-0.608l1.977-3.285c-0.56,0.364-1.129,0.667-1.705,0.911c-0.576,0.244-1.149,0.423-1.72,0.537
				c-0.571,0.114-1.142,0.171-1.713,0.171c-1.297,0-2.468-0.272-3.511-0.817c-1.043-0.545-1.866-1.305-2.468-2.281
				c-0.602-0.976-0.903-2.055-0.903-3.238c0-1.101,0.231-2.074,0.693-2.92c0.462-0.846,1.126-1.497,1.993-1.954
				c0.867-0.456,1.845-0.685,2.935-0.685c1.682,0,3.083,0.545,4.204,1.635v-3.472C369.294,42.755,368.069,42.614,366.823,42.614
				 M349.879,42.614c-1.36,0-2.535,0.18-3.526,0.538c-0.992,0.358-1.752,0.879-2.281,1.564c-0.53,0.685-0.794,1.495-0.794,2.429
				c0,0.716,0.153,1.326,0.459,1.83c0.306,0.503,0.817,0.968,1.534,1.393c0.716,0.426,1.728,0.872,3.036,1.339
				c1.754,0.633,2.828,1.09,3.223,1.37c0.508,0.364,0.763,0.872,0.763,1.526c0,0.675-0.348,1.238-1.044,1.69
				c-0.695,0.451-1.557,0.677-2.584,0.677c-0.716,0-1.394-0.065-2.032-0.195c-0.638-0.129-1.295-0.345-1.97-0.646
				c-0.674-0.301-1.437-0.716-2.288-1.246l1.152,3.317c0.903,0.332,1.66,0.555,2.273,0.669c0.612,0.114,1.365,0.172,2.258,0.172
				c1.505,0,2.815-0.213,3.931-0.639c1.116-0.425,1.977-1.038,2.585-1.837c0.607-0.799,0.91-1.718,0.91-2.756
				c0-1.142-0.436-2.122-1.307-2.943c-0.436-0.394-0.922-0.716-1.456-0.965c-0.535-0.249-1.451-0.586-2.748-1.012
				c-0.914-0.29-1.625-0.55-2.133-0.778c-0.509-0.229-0.878-0.473-1.106-0.732c-0.228-0.26-0.342-0.55-0.342-0.872
				c0-0.561,0.282-1.015,0.848-1.362c0.566-0.348,1.316-0.522,2.25-0.522c1.308,0,2.688,0.436,4.142,1.308v-2.865
				C352.604,42.765,351.353,42.614,349.879,42.614 M334.09,43.074c-0.82-0.306-1.749-0.46-2.787-0.46
				c-1.1,0-2.127,0.208-3.082,0.623c-0.955,0.416-1.796,1.002-2.523,1.76c-0.726,0.757-1.287,1.637-1.681,2.639
				c-0.395,1.002-0.592,2.078-0.592,3.23c0,1.433,0.304,2.733,0.911,3.901c0.607,1.167,1.482,2.146,2.624,2.935
				c0.695,0.456,1.455,0.794,2.28,1.012c0.826,0.218,1.757,0.327,2.795,0.327c0.581,0,1.142-0.078,1.682-0.234l1.946-3.02
				c-0.56,0.353-1.054,0.594-1.479,0.724c-0.426,0.129-0.919,0.194-1.479,0.194c-1.111,0-2.108-0.275-2.99-0.825
				c-0.882-0.55-1.578-1.318-2.086-2.304c-0.509-0.986-0.763-2.076-0.763-3.27c0-1.038,0.21-1.977,0.631-2.818
				c0.42-0.841,1.006-1.497,1.759-1.97c0.753-0.472,1.606-0.708,2.561-0.708c0.758,0,1.474,0.161,2.149,0.482
				c0.675,0.322,1.23,0.779,1.666,1.371c0.415,0.529,0.68,1.045,0.794,1.549c0.114,0.503,0.171,1.409,0.171,2.717v7.66h4.297
				c-0.591-0.467-0.952-0.869-1.082-1.207c-0.129-0.337-0.194-1.04-0.194-2.109V35.795c-0.395,0.426-1.054,0.638-1.978,0.638h-2.319
				c0.425,0.322,0.718,0.592,0.879,0.81c0.161,0.218,0.267,0.511,0.319,0.88c0.052,0.368,0.078,0.91,0.078,1.627v4.842
				C335.746,43.886,334.91,43.38,334.09,43.074 M307.563,43.066h-2.164c0.436,0.332,0.734,0.607,0.895,0.825
				c0.161,0.218,0.265,0.483,0.311,0.794c0.047,0.312,0.071,0.877,0.071,1.697v8.891c0,0.809-0.024,1.373-0.071,1.689
				c-0.046,0.317-0.15,0.584-0.311,0.802c-0.161,0.218-0.459,0.493-0.895,0.825h5.574c-0.426-0.342-0.719-0.62-0.88-0.833
				s-0.267-0.49-0.319-0.833c-0.052-0.342-0.078-0.892-0.078-1.65v-6.789c0-0.851,0.15-1.489,0.452-1.915
				c0.332-0.456,0.778-0.815,1.339-1.074c0.56-0.259,1.178-0.389,1.852-0.389c0.696,0,1.352,0.132,1.97,0.397
				c0.617,0.264,1.087,0.61,1.409,1.035c0.259,0.311,0.446,0.729,0.561,1.253c0.114,0.525,0.171,1.233,0.171,2.126v5.356
				c0,0.726-0.026,1.266-0.078,1.619s-0.161,0.641-0.327,0.864c-0.166,0.223-0.467,0.501-0.903,0.833h5.621
				c-0.592-0.467-0.953-0.869-1.082-1.207c-0.13-0.337-0.195-1.04-0.195-2.109v-5.714c0-1.277-0.057-2.235-0.171-2.873
				c-0.115-0.638-0.322-1.196-0.623-1.674c-0.322-0.467-0.747-0.885-1.277-1.253c-0.529-0.368-1.139-0.651-1.829-0.849
				c-0.691-0.197-1.378-0.296-2.063-0.296c-0.997,0-1.869,0.195-2.616,0.584c-0.747,0.39-1.536,1.067-2.367,2.032v-2.802
				C309.146,42.853,308.487,43.066,307.563,43.066 M298.653,56.861c0.171,0.467,0.511,0.862,1.02,1.183
				c0.405,0.249,0.83,0.423,1.277,0.522c0.446,0.098,1.074,0.179,1.884,0.241l1.463-2.195c-0.924-0.031-1.593-0.213-2.008-0.545
				c-0.385-0.28-0.623-0.584-0.717-0.911c-0.093-0.327-0.14-0.968-0.14-1.923v-4.344c0-1.235-0.039-2.094-0.117-2.577
				c-0.077-0.482-0.262-0.962-0.552-1.44c-0.945-1.505-2.839-2.258-5.683-2.258c-0.81,0-1.588,0.073-2.336,0.218l-2.226,3.379
				c1.1-0.529,1.967-0.885,2.6-1.066c0.633-0.182,1.297-0.273,1.993-0.273c0.623,0,1.181,0.088,1.674,0.265
				c0.493,0.176,0.874,0.428,1.144,0.755s0.405,0.703,0.405,1.129c0,0.602-0.252,1.058-0.755,1.37
				c-0.504,0.311-1.518,0.618-3.044,0.918c-2.107,0.405-3.581,0.841-4.422,1.308c-0.571,0.302-1.028,0.766-1.37,1.394
				c-0.343,0.628-0.514,1.29-0.514,1.985c0,1.464,0.571,2.709,1.713,3.737c0.975,0.872,2.304,1.308,3.986,1.308
				c0.654,0,1.271-0.068,1.852-0.203l1.978-2.507c-0.955,0.291-1.796,0.436-2.523,0.436c-1.121,0-1.995-0.243-2.623-0.731
				c-0.628-0.488-0.942-1.158-0.942-2.009c0-1.328,0.81-2.19,2.429-2.584c1.214-0.281,1.995-0.468,2.343-0.561
				c0.348-0.093,0.664-0.189,0.95-0.288c0.285-0.099,0.62-0.241,1.004-0.428v4.344C298.396,55.61,298.482,56.394,298.653,56.861
				 M276.135,38.473c0.078-0.54,0.221-0.96,0.428-1.261c0.208-0.301,0.524-0.561,0.95-0.779h-6.384
				c0.415,0.218,0.732,0.48,0.95,0.787c0.218,0.306,0.366,0.726,0.444,1.261c0.078,0.534,0.117,1.284,0.117,2.25v13.561
				c0,0.965-0.039,1.715-0.117,2.25c-0.078,0.534-0.226,0.955-0.444,1.261c-0.218,0.306-0.535,0.568-0.95,0.786h13.749l1.79-4.468
				c-1.111,0.789-2.102,1.331-2.974,1.627c-0.872,0.295-1.92,0.443-3.145,0.443c-1.453,0-2.963-0.114-4.531-0.342V40.731
				C276.018,39.765,276.057,39.013,276.135,38.473 M252.987,53.903c-1.38,1.868-3.072,2.802-5.075,2.802
				c-1.35,0-2.458-0.405-3.324-1.214c-0.867-0.81-1.301-1.848-1.301-3.114c0-1.827,1.023-3.488,3.068-4.983
				C248.036,49.294,250.247,51.463,252.987,53.903 M245.062,41.563c-0.353-0.513-0.529-1.035-0.529-1.564
				c0-0.571,0.208-1.038,0.623-1.402c0.415-0.363,0.939-0.544,1.572-0.544c0.686,0,1.251,0.197,1.698,0.591
				c0.446,0.395,0.669,0.898,0.669,1.51c0,1.153-0.722,2.279-2.164,3.379C246.038,42.734,245.415,42.077,245.062,41.563
				 M251.197,42.879c0.405-0.674,0.607-1.463,0.607-2.366c0-1.308-0.457-2.39-1.37-3.247c-0.913-0.856-2.071-1.284-3.472-1.284
				c-0.965,0-1.856,0.2-2.67,0.599c-0.815,0.4-1.461,0.95-1.939,1.651c-0.477,0.7-0.716,1.461-0.716,2.281
				c0,0.508,0.083,0.996,0.249,1.463s0.439,0.955,0.818,1.464c0.378,0.508,0.926,1.136,1.642,1.884
				c-1.131,0.903-2.039,1.741-2.724,2.514c-0.686,0.774-1.174,1.529-1.464,2.266c-0.291,0.737-0.436,1.557-0.436,2.46
				c0,1.266,0.319,2.395,0.958,3.386c0.638,0.991,1.533,1.754,2.685,2.289c1.153,0.534,2.465,0.802,3.94,0.802
				c1.089,0,2.049-0.133,2.88-0.397c0.83-0.265,1.57-0.675,2.219-1.23c0.648-0.556,1.3-1.321,1.954-2.297
				c0.986,0.914,1.863,1.63,2.631,2.149c0.768,0.519,1.5,0.885,2.195,1.097c0.696,0.213,1.458,0.32,2.289,0.32
				c0.872,0,2.123-0.032,3.752-0.094c-1.38-0.695-2.564-1.352-3.55-1.969c-0.986-0.618-2.107-1.428-3.363-2.429
				c-1.256-1.002-2.67-2.227-4.242-3.675c-1.573-1.448-3.314-3.116-5.224-5.006C250.008,44.431,250.792,43.554,251.197,42.879
				 M224.289,45.744c0.82,0.789,1.23,1.754,1.23,2.896c0,1.007-0.311,1.827-0.934,2.46s-1.438,0.95-2.444,0.95
				c-1.205,0-2.23-0.418-3.075-1.254c-0.847-0.835-1.269-1.85-1.269-3.043c0-0.914,0.334-1.674,1.004-2.281
				c0.669-0.608,1.497-0.911,2.483-0.911C222.468,44.561,223.469,44.955,224.289,45.744 M227.777,42.895
				c-1.028,0-2.102-0.042-3.223-0.125c-1.557-0.103-2.533-0.156-2.927-0.156c-1.277,0-2.447,0.255-3.511,0.763
				c-1.064,0.509-1.897,1.199-2.499,2.071s-0.903,1.843-0.903,2.912c0,0.747,0.161,1.474,0.482,2.179
				c0.322,0.706,0.774,1.319,1.355,1.838c0.384,0.332,0.732,0.573,1.043,0.724c0.312,0.15,0.773,0.309,1.386,0.475
				c-0.747,0.29-1.311,0.532-1.689,0.724c-0.379,0.192-0.639,0.368-0.779,0.529s-0.21,0.35-0.21,0.568
				c0,0.281,0.078,0.6,0.233,0.958c0.156,0.358,0.343,0.646,0.561,0.864c0.436,0.384,0.97,0.576,1.604,0.576
				c0.311,0,0.565-0.01,0.763-0.031c0.404-0.021,0.944-0.031,1.619-0.031c2.294,0,4.006,0.264,5.138,0.794
				c1.131,0.529,1.697,1.339,1.697,2.429c0,0.726-0.249,1.367-0.747,1.923c-0.499,0.555-1.202,0.988-2.11,1.3
				c-0.908,0.311-1.944,0.467-3.106,0.467c-1.755,0-3.151-0.325-4.189-0.973c-1.038-0.649-1.557-1.534-1.557-2.655
				c0-0.467,0.122-0.823,0.366-1.067s0.62-0.412,1.129-0.506c-0.633-0.27-1.24-0.404-1.821-0.404c-0.644,0-1.202,0.109-1.674,0.327
				c-0.473,0.218-0.831,0.526-1.075,0.926c-0.244,0.399-0.365,0.874-0.365,1.425c0,0.903,0.407,1.725,1.222,2.467
				c0.815,0.742,1.93,1.324,3.347,1.744c1.417,0.421,2.966,0.631,4.648,0.631c0.757,0,1.495-0.052,2.211-0.156
				c0.716-0.104,1.383-0.252,2.001-0.444c0.617-0.192,1.206-0.43,1.767-0.716c0.56-0.285,1.064-0.61,1.51-0.973
				c1.121-0.913,1.682-2.107,1.682-3.581c0-0.965-0.245-1.785-0.732-2.46c-0.343-0.446-0.805-0.859-1.386-1.238
				c-0.581-0.379-1.158-0.646-1.728-0.802c-0.685-0.197-1.409-0.329-2.172-0.397c-0.763-0.067-1.913-0.111-3.449-0.132
				c-0.934,0-1.401-0.213-1.401-0.638c0-0.208,0.106-0.382,0.319-0.522s0.553-0.257,1.02-0.35c1.453-0.146,2.569-0.369,3.347-0.67
				c1.267-0.456,2.221-1.074,2.865-1.853c0.644-0.778,0.965-1.691,0.965-2.74c0-0.851-0.197-1.609-0.591-2.273
				c-0.395-0.664-1.028-1.298-1.9-1.9c1.838,0.322,3.073,0.483,3.706,0.483c0.488,0,0.804-0.14,0.95-0.42l0.965-2.165
				C230.429,42.801,229.043,42.895,227.777,42.895 M198.375,43.066h-2.164c0.436,0.332,0.734,0.607,0.896,0.825
				c0.16,0.218,0.264,0.483,0.311,0.794c0.047,0.312,0.07,0.877,0.07,1.697v8.891c0,0.809-0.023,1.373-0.07,1.689
				c-0.047,0.317-0.151,0.584-0.311,0.802c-0.162,0.218-0.46,0.493-0.896,0.825h5.574c-0.425-0.342-0.719-0.62-0.879-0.833
				c-0.162-0.213-0.268-0.49-0.32-0.833c-0.052-0.342-0.077-0.892-0.077-1.65v-6.789c0-0.851,0.15-1.489,0.451-1.915
				c0.332-0.456,0.779-0.815,1.339-1.074c0.561-0.259,1.178-0.389,1.853-0.389c0.695,0,1.352,0.132,1.969,0.397
				c0.618,0.264,1.088,0.61,1.41,1.035c0.259,0.311,0.446,0.729,0.56,1.253c0.114,0.525,0.171,1.233,0.171,2.126v5.356
				c0,0.726-0.026,1.266-0.078,1.619s-0.161,0.641-0.327,0.864s-0.467,0.501-0.903,0.833h5.621
				c-0.592-0.467-0.952-0.869-1.082-1.207c-0.13-0.337-0.195-1.04-0.195-2.109v-5.714c0-1.277-0.057-2.235-0.171-2.873
				c-0.114-0.638-0.322-1.196-0.623-1.674c-0.322-0.467-0.747-0.885-1.276-1.253c-0.53-0.368-1.14-0.651-1.83-0.849
				c-0.69-0.197-1.378-0.296-2.063-0.296c-0.996,0-1.868,0.195-2.616,0.584c-0.747,0.39-1.536,1.067-2.366,2.032v-2.802
				C199.958,42.853,199.299,43.066,198.375,43.066 M189.834,37.445c-0.416,0.405-0.623,0.893-0.623,1.464
				c0,0.591,0.2,1.092,0.599,1.502c0.4,0.41,0.89,0.615,1.472,0.615c0.601,0,1.102-0.205,1.502-0.615c0.4-0.41,0.6-0.911,0.6-1.502
				c0-0.561-0.198-1.046-0.592-1.456c-0.395-0.41-0.877-0.615-1.448-0.615C190.752,36.838,190.249,37.04,189.834,37.445
				 M190.908,43.066h-2.336c0.436,0.332,0.735,0.607,0.896,0.825c0.16,0.218,0.264,0.483,0.311,0.794
				c0.047,0.312,0.07,0.877,0.07,1.697v8.891c0,0.809-0.023,1.373-0.07,1.689c-0.047,0.317-0.151,0.584-0.311,0.802
				c-0.161,0.218-0.46,0.493-0.896,0.825h5.574c-0.425-0.342-0.718-0.62-0.879-0.833c-0.161-0.213-0.268-0.49-0.319-0.833
				c-0.053-0.342-0.078-0.892-0.078-1.65V42.428C192.475,42.853,191.821,43.066,190.908,43.066 M172.32,43.066h-2.165
				c0.436,0.332,0.735,0.607,0.896,0.825c0.16,0.218,0.264,0.483,0.311,0.794c0.047,0.312,0.07,0.877,0.07,1.697v8.891
				c0,0.809-0.023,1.373-0.07,1.689c-0.047,0.317-0.151,0.584-0.311,0.802c-0.161,0.218-0.46,0.493-0.896,0.825h5.574
				c-0.425-0.342-0.719-0.62-0.879-0.833c-0.161-0.213-0.268-0.49-0.32-0.833c-0.052-0.342-0.077-0.892-0.077-1.65v-6.789
				c0-0.851,0.15-1.489,0.451-1.915c0.332-0.456,0.779-0.815,1.339-1.074c0.561-0.259,1.178-0.389,1.853-0.389
				c0.695,0,1.352,0.132,1.97,0.397c0.617,0.264,1.087,0.61,1.409,1.035c0.259,0.311,0.446,0.729,0.56,1.253
				c0.114,0.525,0.171,1.233,0.171,2.126v5.356c0,0.726-0.026,1.266-0.077,1.619c-0.053,0.353-0.161,0.641-0.327,0.864
				c-0.167,0.223-0.468,0.501-0.903,0.833h5.62c-0.591-0.467-0.952-0.869-1.082-1.207c-0.13-0.337-0.194-1.04-0.194-2.109v-5.714
				c0-1.277-0.058-2.235-0.172-2.873c-0.114-0.638-0.322-1.196-0.623-1.674c-0.321-0.467-0.747-0.885-1.276-1.253
				c-0.53-0.368-1.14-0.651-1.83-0.849c-0.69-0.197-1.378-0.296-2.063-0.296c-0.996,0-1.868,0.195-2.615,0.584
				c-0.748,0.39-1.537,1.067-2.367,2.032v-2.802C173.902,42.853,173.243,43.066,172.32,43.066 M153.902,43.066h-2.164
				c0.436,0.332,0.735,0.607,0.896,0.825c0.16,0.218,0.264,0.483,0.311,0.794c0.047,0.312,0.07,0.877,0.07,1.697v8.891
				c0,0.809-0.023,1.373-0.07,1.689c-0.047,0.317-0.151,0.584-0.311,0.802c-0.161,0.218-0.46,0.493-0.896,0.825h5.574
				c-0.425-0.342-0.719-0.62-0.879-0.833c-0.161-0.213-0.268-0.49-0.32-0.833c-0.052-0.342-0.077-0.892-0.077-1.65v-6.789
				c0-0.851,0.15-1.489,0.451-1.915c0.332-0.456,0.779-0.815,1.339-1.074c0.561-0.259,1.178-0.389,1.853-0.389
				c0.695,0,1.352,0.132,1.969,0.397c0.618,0.264,1.088,0.61,1.41,1.035c0.259,0.311,0.446,0.729,0.56,1.253
				c0.114,0.525,0.171,1.233,0.171,2.126v5.356c0,0.726-0.026,1.266-0.078,1.619s-0.161,0.641-0.326,0.864
				c-0.167,0.223-0.468,0.501-0.904,0.833h5.621c-0.591-0.467-0.952-0.869-1.082-1.207c-0.13-0.337-0.195-1.04-0.195-2.109v-5.714
				c0-1.277-0.057-2.235-0.171-2.873s-0.322-1.196-0.623-1.674c-0.321-0.467-0.747-0.885-1.276-1.253
				c-0.53-0.368-1.14-0.651-1.83-0.849c-0.69-0.197-1.378-0.296-2.063-0.296c-0.996,0-1.868,0.195-2.616,0.584
				c-0.747,0.39-1.536,1.067-2.366,2.032v-2.802C155.485,42.853,154.826,43.066,153.902,43.066 M144.992,56.861
				c0.172,0.467,0.512,0.862,1.02,1.183c0.405,0.249,0.831,0.423,1.277,0.522c0.446,0.098,1.074,0.179,1.884,0.241l1.464-2.195
				c-0.924-0.031-1.594-0.213-2.009-0.545c-0.384-0.28-0.623-0.584-0.716-0.911c-0.094-0.327-0.14-0.968-0.14-1.923v-4.344
				c0-1.235-0.039-2.094-0.117-2.577c-0.078-0.482-0.262-0.962-0.553-1.44c-0.944-1.505-2.839-2.258-5.683-2.258
				c-0.809,0-1.588,0.073-2.335,0.218l-2.227,3.379c1.1-0.529,1.967-0.885,2.6-1.066c0.633-0.182,1.298-0.273,1.993-0.273
				c0.623,0,1.181,0.088,1.674,0.265c0.493,0.176,0.874,0.428,1.144,0.755s0.405,0.703,0.405,1.129c0,0.602-0.251,1.058-0.755,1.37
				c-0.503,0.311-1.518,0.618-3.044,0.918c-2.107,0.405-3.581,0.841-4.422,1.308c-0.571,0.302-1.027,0.766-1.37,1.394
				c-0.342,0.628-0.513,1.29-0.513,1.985c0,1.464,0.57,2.709,1.712,3.737c0.976,0.872,2.305,1.308,3.986,1.308
				c0.654,0,1.271-0.068,1.853-0.203l1.977-2.507c-0.955,0.291-1.796,0.436-2.522,0.436c-1.121,0-1.996-0.243-2.624-0.731
				c-0.628-0.488-0.942-1.158-0.942-2.009c0-1.328,0.81-2.19,2.429-2.584c1.215-0.281,1.996-0.468,2.344-0.561
				c0.347-0.093,0.664-0.189,0.949-0.288c0.286-0.099,0.62-0.241,1.005-0.428v4.344C144.736,55.61,144.821,56.394,144.992,56.861
				 M132.08,57.382c-0.13-0.337-0.195-1.04-0.195-2.109V35.795c-0.395,0.426-1.054,0.638-1.977,0.638h-2.32
				c0.436,0.333,0.734,0.605,0.895,0.818c0.161,0.213,0.265,0.475,0.311,0.786c0.047,0.311,0.07,0.882,0.07,1.713v15.523
				c0,0.809-0.023,1.373-0.07,1.689c-0.046,0.317-0.15,0.584-0.311,0.802c-0.161,0.218-0.459,0.493-0.895,0.825h5.574
				C132.57,58.122,132.209,57.72,132.08,57.382 M117.788,38.722c0.768,0,1.453,0.093,2.055,0.28
				c0.602,0.187,1.113,0.465,1.534,0.833c0.42,0.369,0.742,0.805,0.965,1.308c0.223,0.504,0.335,1.088,0.335,1.752
				c0,1.411-0.587,2.626-1.759,3.643c-0.551,0.457-1.145,0.81-1.783,1.059c-0.639,0.249-1.487,0.436-2.546,0.56
				c0.747,0.301,1.552,0.452,2.413,0.452c1.339,0,2.577-0.283,3.714-0.849c1.136-0.565,2.039-1.336,2.709-2.312
				c0.67-0.975,1.004-2.029,1.004-3.161c0-1.068-0.311-2.057-0.934-2.966c-0.623-0.908-1.448-1.606-2.476-2.094
				c-1.162-0.55-2.636-0.825-4.421-0.825h-1.059c-1.609,0.021-2.536,0.031-2.779,0.031h-0.989h-3.223
				c0.415,0.218,0.732,0.48,0.95,0.787c0.218,0.306,0.366,0.726,0.444,1.261c0.077,0.534,0.116,1.284,0.116,2.25v13.561
				c0,0.965-0.039,1.715-0.116,2.25c-0.078,0.534-0.226,0.955-0.444,1.261c-0.218,0.306-0.535,0.568-0.95,0.786h6.633
				c-0.447-0.28-0.8-0.589-1.059-0.926c-0.26-0.337-0.439-0.75-0.537-1.238c-0.099-0.488-0.148-1.085-0.148-1.791V39.018
				C116.215,38.821,116.999,38.722,117.788,38.722"/>
			<path style="fill:#00275B;" d="M445.56,28.846c0.27,0,0.612-0.192,1.027-0.576c0.696-0.675,1.246-1.415,1.651-2.219
				c0.405-0.804,0.607-1.549,0.607-2.234c0-0.467-0.091-0.875-0.272-1.222c-0.182-0.348-0.436-0.621-0.763-0.818
				c-0.327-0.197-0.683-0.296-1.067-0.296c-0.55,0-1.022,0.19-1.417,0.569c-0.394,0.379-0.591,0.838-0.591,1.378
				c0,0.425,0.124,0.801,0.373,1.128c0.249,0.327,0.571,0.548,0.966,0.662c0.321,0.073,0.518,0.132,0.591,0.179
				c0.073,0.047,0.109,0.122,0.109,0.226c0,0.249-0.241,0.677-0.724,1.284c-0.482,0.608-1.072,1.223-1.767,1.845
				C444.958,28.815,445.383,28.846,445.56,28.846 M431.308,12.389c0.779-0.654,1.739-0.981,2.881-0.981
				c2.377,0,3.804,1.256,4.282,3.768h-8.704C430.016,13.972,430.53,13.043,431.308,12.389 M442.005,16.733
				c0-1.059-0.192-2.037-0.576-2.935c-0.384-0.898-0.919-1.674-1.604-2.328s-1.495-1.162-2.429-1.526
				c-0.934-0.363-1.951-0.545-3.051-0.545c-1.121,0-2.157,0.164-3.107,0.491c-0.949,0.327-1.782,0.812-2.499,1.455
				c-0.55,0.499-1.033,1.088-1.448,1.768s-0.734,1.401-0.957,2.164s-0.335,1.533-0.335,2.312c0,1.588,0.402,3.01,1.207,4.266
				c0.804,1.256,1.936,2.232,3.394,2.927s3.101,1.043,4.928,1.043c0.539,0,1.077-0.026,1.611-0.078
				c0.535-0.052,1.044-0.137,1.526-0.256c0.483-0.12,0.989-0.278,1.518-0.475l1.822-3.208c-0.613,0.416-1.204,0.75-1.775,1.005
				c-0.571,0.254-1.181,0.441-1.829,0.56c-0.649,0.12-1.327,0.179-2.032,0.179c-1.319,0-2.481-0.249-3.488-0.747
				s-1.785-1.22-2.335-2.164c-0.551-0.945-0.857-2.066-0.919-3.364h12.378V16.733z M420.245,24.541
				c-0.161-0.213-0.267-0.491-0.319-0.833c-0.052-0.343-0.078-0.893-0.078-1.651v-5.542c0-1.381,0.239-2.403,0.716-3.068
				c0.291-0.425,0.696-0.76,1.215-1.004c0.519-0.244,1.079-0.366,1.681-0.366c0.685,0,1.215,0.182,1.588,0.545V9.524
				c-0.467-0.083-0.856-0.125-1.167-0.125c-0.872,0-1.651,0.221-2.336,0.662c-0.685,0.441-1.251,1.082-1.697,1.923V9.212
				c-0.394,0.426-1.048,0.639-1.962,0.639h-2.335c0.436,0.332,0.734,0.607,0.895,0.825c0.161,0.218,0.265,0.483,0.311,0.794
				c0.047,0.311,0.071,0.877,0.071,1.697v8.89c0,0.81-0.024,1.373-0.071,1.69c-0.046,0.317-0.15,0.584-0.311,0.802
				c-0.161,0.218-0.459,0.493-0.895,0.825h5.574C420.699,25.031,420.406,24.754,420.245,24.541 M413.486,25.374
				c-0.426-0.343-0.719-0.62-0.88-0.833c-0.161-0.213-0.267-0.491-0.319-0.833c-0.052-0.343-0.078-0.893-0.078-1.651V9.212
				c-0.394,0.426-1.038,0.639-1.93,0.639h-2.367c0.425,0.322,0.719,0.591,0.88,0.809c0.161,0.218,0.267,0.512,0.319,0.88
				c0.052,0.369,0.078,0.911,0.078,1.627v6.026c0,1.214-0.353,2.187-1.059,2.919s-1.65,1.098-2.834,1.098
				c-1.276,0-2.273-0.426-2.989-1.277c-0.301-0.394-0.517-0.846-0.646-1.355c-0.13-0.508-0.195-1.173-0.195-1.993V9.212
				c-0.395,0.426-1.064,0.639-2.008,0.639h-2.289c0.436,0.332,0.734,0.607,0.895,0.825c0.161,0.218,0.265,0.483,0.311,0.794
				c0.047,0.311,0.071,0.877,0.071,1.697v6.026c0,1.899,0.316,3.321,0.949,4.266c0.499,0.747,1.186,1.329,2.063,1.744
				c0.877,0.415,1.871,0.622,2.982,0.622c0.757,0,1.393-0.08,1.907-0.241s0.986-0.415,1.417-0.763s0.947-0.895,1.549-1.643v2.196
				H413.486z M393.538,12.077c0.57,0,1.001,0.044,1.292,0.133c0.29,0.088,0.56,0.246,0.809,0.474V9.648
				c-0.321,0.135-0.98,0.203-1.977,0.203h-2.616V4.837h-1.308v0.421c0,1.889-0.415,3.269-1.245,4.141
				c-0.696,0.779-1.619,1.267-2.772,1.464v1.214h2.305v7.427c0,1.08,0.031,1.889,0.093,2.429c0.063,0.54,0.177,0.983,0.343,1.331
				c0.166,0.348,0.425,0.709,0.778,1.082c0.945,0.986,2.092,1.479,3.441,1.479c0.426,0,0.83-0.067,1.215-0.202l1.743-2.382
				c-0.498,0.187-0.965,0.28-1.401,0.28c-1.1,0-1.962-0.384-2.584-1.152c-0.239-0.301-0.4-0.664-0.483-1.09
				s-0.125-1.111-0.125-2.055v-7.147H393.538z M379.805,9.399c-1.453,0-2.732,0.192-3.837,0.576
				c-1.106,0.384-2.11,0.992-3.013,1.822c-1.827,1.681-2.741,3.721-2.741,6.119c0,1.121,0.229,2.172,0.686,3.153
				c0.456,0.981,1.1,1.827,1.93,2.538c0.831,0.711,1.798,1.258,2.904,1.642c1.105,0.384,2.328,0.576,3.667,0.576
				c1.826,0,3.259-0.202,4.297-0.607l1.977-3.285c-0.56,0.363-1.129,0.667-1.705,0.911c-0.576,0.244-1.149,0.423-1.72,0.537
				c-0.571,0.114-1.142,0.171-1.713,0.171c-1.297,0-2.468-0.272-3.511-0.817s-1.866-1.305-2.468-2.281
				c-0.602-0.976-0.903-2.055-0.903-3.239c0-1.1,0.231-2.073,0.693-2.919c0.462-0.846,1.126-1.497,1.993-1.954
				s1.845-0.685,2.935-0.685c1.682,0,3.083,0.545,4.204,1.635V9.82C382.276,9.539,381.051,9.399,379.805,9.399 M357.487,12.389
				c0.779-0.654,1.739-0.981,2.881-0.981c2.377,0,3.804,1.256,4.282,3.768h-8.704C356.195,13.972,356.709,13.043,357.487,12.389
				 M368.184,16.733c0-1.059-0.192-2.037-0.576-2.935c-0.384-0.898-0.919-1.674-1.604-2.328s-1.495-1.162-2.429-1.526
				c-0.934-0.363-1.951-0.545-3.051-0.545c-1.121,0-2.157,0.164-3.107,0.491c-0.949,0.327-1.782,0.812-2.499,1.455
				c-0.55,0.499-1.033,1.088-1.448,1.768s-0.734,1.401-0.957,2.164s-0.335,1.533-0.335,2.312c0,1.588,0.402,3.01,1.207,4.266
				c0.804,1.256,1.936,2.232,3.394,2.927c1.458,0.695,3.101,1.043,4.928,1.043c0.54,0,1.077-0.026,1.611-0.078
				c0.535-0.052,1.044-0.137,1.526-0.256c0.483-0.12,0.989-0.278,1.518-0.475l1.822-3.208c-0.613,0.416-1.204,0.75-1.775,1.005
				c-0.571,0.254-1.181,0.441-1.829,0.56c-0.649,0.12-1.327,0.179-2.032,0.179c-1.319,0-2.481-0.249-3.488-0.747
				c-1.007-0.498-1.785-1.22-2.335-2.164c-0.551-0.945-0.857-2.066-0.919-3.364h12.378V16.733z M349.126,12.077
				c0.57,0,1.001,0.044,1.292,0.133c0.29,0.088,0.56,0.246,0.809,0.474V9.648c-0.321,0.135-0.98,0.203-1.977,0.203h-2.616V4.837
				h-1.308v0.421c0,1.889-0.415,3.269-1.245,4.141c-0.696,0.779-1.619,1.267-2.772,1.464v1.214h2.305v7.427
				c0,1.08,0.031,1.889,0.093,2.429c0.062,0.54,0.177,0.983,0.343,1.331c0.166,0.348,0.425,0.709,0.778,1.082
				c0.945,0.986,2.092,1.479,3.441,1.479c0.426,0,0.83-0.067,1.215-0.202l1.743-2.382c-0.498,0.187-0.965,0.28-1.401,0.28
				c-1.1,0-1.962-0.384-2.584-1.152c-0.239-0.301-0.4-0.664-0.483-1.09s-0.125-1.111-0.125-2.055v-7.147H349.126z M335.829,4.23
				c-0.415,0.405-0.623,0.893-0.623,1.464c0,0.591,0.2,1.092,0.6,1.502c0.399,0.41,0.89,0.615,1.471,0.615
				c0.602,0,1.103-0.205,1.502-0.615c0.4-0.41,0.6-0.911,0.6-1.502c0-0.561-0.197-1.046-0.592-1.456
				c-0.394-0.41-0.877-0.615-1.448-0.615C336.748,3.623,336.244,3.825,335.829,4.23 M336.903,9.851h-2.335
				c0.436,0.332,0.734,0.607,0.895,0.825c0.161,0.218,0.265,0.483,0.311,0.794c0.047,0.311,0.071,0.877,0.071,1.697v8.89
				c0,0.81-0.024,1.373-0.071,1.69c-0.046,0.317-0.15,0.584-0.311,0.802c-0.161,0.218-0.459,0.493-0.895,0.825h5.574
				c-0.426-0.343-0.719-0.62-0.88-0.833c-0.161-0.213-0.267-0.491-0.319-0.833c-0.052-0.343-0.078-0.893-0.078-1.651V9.212
				C338.471,9.638,337.817,9.851,336.903,9.851 M318.506,3.218h-2.32c0.436,0.332,0.734,0.605,0.895,0.817
				c0.161,0.213,0.265,0.475,0.312,0.787c0.046,0.311,0.07,0.882,0.07,1.712v15.523c0,0.81-0.024,1.373-0.07,1.69
				c-0.047,0.317-0.151,0.584-0.312,0.802c-0.161,0.218-0.459,0.493-0.895,0.825h5.605c-0.457-0.353-0.763-0.633-0.919-0.841
				c-0.155-0.207-0.259-0.488-0.311-0.841c-0.052-0.352-0.078-0.897-0.078-1.635v-6.15c0-0.892,0.034-1.494,0.101-1.806
				c0.068-0.311,0.236-0.633,0.506-0.965c0.374-0.436,0.838-0.768,1.394-0.997c0.555-0.228,1.165-0.342,1.829-0.342
				c1.453,0,2.538,0.477,3.254,1.432c0.25,0.312,0.418,0.667,0.506,1.067c0.088,0.4,0.133,0.999,0.133,1.798v5.963
				c0,0.738-0.026,1.285-0.078,1.643c-0.052,0.358-0.158,0.646-0.319,0.864c-0.161,0.218-0.465,0.488-0.911,0.81h5.605
				c-0.592-0.478-0.952-0.885-1.082-1.222c-0.13-0.338-0.195-1.036-0.195-2.095v-6.99c0-0.903-0.06-1.599-0.179-2.087
				c-0.119-0.488-0.335-0.95-0.646-1.385c-0.342-0.468-0.76-0.865-1.253-1.192c-0.493-0.327-1.049-0.576-1.666-0.747
				c-0.618-0.171-1.269-0.257-1.954-0.257c-1.049,0-2.027,0.192-2.935,0.576c-0.909,0.384-1.612,0.903-2.11,1.557V2.58
				C320.089,3.005,319.429,3.218,318.506,3.218 M309.65,9.399c-1.453,0-2.732,0.192-3.838,0.576
				c-1.105,0.384-2.109,0.992-3.013,1.822c-1.827,1.681-2.74,3.721-2.74,6.119c0,1.121,0.228,2.172,0.685,3.153
				s1.1,1.827,1.931,2.538c0.83,0.711,1.798,1.258,2.904,1.642c1.105,0.384,2.327,0.576,3.666,0.576c1.827,0,3.26-0.202,4.298-0.607
				l1.977-3.285c-0.56,0.363-1.129,0.667-1.705,0.911c-0.576,0.244-1.15,0.423-1.72,0.537c-0.571,0.114-1.142,0.171-1.713,0.171
				c-1.298,0-2.468-0.272-3.511-0.817s-1.866-1.305-2.468-2.281c-0.602-0.976-0.903-2.055-0.903-3.239
				c0-1.1,0.231-2.073,0.693-2.919c0.462-0.846,1.126-1.497,1.993-1.954c0.866-0.457,1.845-0.685,2.935-0.685
				c1.681,0,3.083,0.545,4.204,1.635V9.82C312.12,9.539,310.896,9.399,309.65,9.399 M294.436,24.541
				c-0.161-0.213-0.267-0.491-0.319-0.833c-0.052-0.343-0.078-0.893-0.078-1.651v-5.542c0-1.381,0.239-2.403,0.716-3.068
				c0.291-0.425,0.695-0.76,1.215-1.004c0.518-0.244,1.079-0.366,1.681-0.366c0.685,0,1.215,0.182,1.588,0.545V9.524
				c-0.467-0.083-0.856-0.125-1.168-0.125c-0.871,0-1.65,0.221-2.335,0.662c-0.685,0.441-1.251,1.082-1.697,1.923V9.212
				c-0.395,0.426-1.049,0.639-1.962,0.639h-2.335c0.436,0.332,0.734,0.607,0.895,0.825c0.161,0.218,0.265,0.483,0.311,0.794
				c0.047,0.311,0.07,0.877,0.07,1.697v8.89c0,0.81-0.023,1.373-0.07,1.69c-0.046,0.317-0.15,0.584-0.311,0.802
				c-0.161,0.218-0.459,0.493-0.895,0.825h5.574C294.89,25.031,294.597,24.754,294.436,24.541 M272.192,14.849l3.441-8.797
				l3.41,8.797H272.192z M281.876,22.151c0.384,0.976,0.576,1.604,0.576,1.884c0,0.259-0.065,0.464-0.194,0.615
				c-0.13,0.15-0.47,0.392-1.02,0.724h6.991c-0.769-0.457-1.368-0.986-1.799-1.588c-0.43-0.602-0.916-1.583-1.455-2.943
				L277.89,3.218h-5.356c0.685,0.332,1.028,0.768,1.028,1.308c0,0.322-0.13,0.83-0.389,1.526l-5.932,14.791
				c-0.561,1.453-1.026,2.447-1.394,2.982c-0.368,0.534-0.947,1.051-1.736,1.549h6.197c-0.457-0.249-0.774-0.48-0.95-0.693
				s-0.265-0.48-0.265-0.802c0-0.488,0.125-1.064,0.374-1.728l1.915-5.138h8.517L281.876,22.151z M254.13,12.077
				c0.581,0,0.978,0.034,1.191,0.101c0.213,0.068,0.413,0.216,0.6,0.444V9.648c-0.374,0.135-0.769,0.203-1.184,0.203h-3.409V7.702
				c0-1.007,0.103-1.666,0.311-1.977c0.394-0.654,1.085-0.981,2.071-0.981c0.602,0,1.178,0.182,1.728,0.545l2.398-2.616
				c-0.934-0.156-1.703-0.234-2.304-0.234c-1.215,0-2.261,0.13-3.138,0.39c-0.877,0.259-1.627,0.664-2.25,1.214
				c-0.664,0.571-1.139,1.178-1.424,1.822c-0.286,0.644-0.428,1.427-0.428,2.351v1.635l-1.682,2.226h1.682v9.98
				c0,0.727-0.026,1.269-0.078,1.627c-0.052,0.359-0.159,0.649-0.319,0.872c-0.162,0.224-0.455,0.496-0.88,0.818h5.745
				c-0.239-0.145-0.405-0.27-0.498-0.374c-0.094-0.104-0.249-0.332-0.467-0.685c-0.125-0.239-0.221-0.496-0.288-0.771
				c-0.068-0.275-0.115-0.656-0.14-1.144c-0.026-0.488-0.039-0.986-0.039-1.495v-8.828H254.13z M239.021,12.451
				c0.836,0.529,1.484,1.271,1.946,2.226c0.462,0.955,0.693,2.056,0.693,3.301c0,1.1-0.22,2.071-0.661,2.912
				c-0.442,0.84-1.062,1.494-1.861,1.961c-0.799,0.468-1.703,0.701-2.709,0.701c-0.758,0-1.466-0.153-2.126-0.459
				c-0.659-0.306-1.243-0.75-1.751-1.331c-0.509-0.582-0.898-1.262-1.168-2.04c-0.27-0.779-0.405-1.593-0.405-2.445
				c0-1.079,0.216-2.049,0.646-2.911c0.431-0.862,1.036-1.528,1.814-2.001c0.779-0.472,1.671-0.708,2.678-0.708
				C237.217,11.657,238.185,11.921,239.021,12.451 M234.389,9.602c-0.685,0.135-1.334,0.34-1.946,0.615
				c-0.613,0.275-1.194,0.62-1.744,1.035c-0.986,0.768-1.759,1.72-2.32,2.857c-0.56,1.137-0.841,2.328-0.841,3.573
				c0,1.516,0.371,2.896,1.114,4.142c0.742,1.245,1.775,2.224,3.098,2.935c1.323,0.711,2.789,1.066,4.399,1.066
				c1.65,0,3.163-0.368,4.538-1.105s2.455-1.741,3.239-3.013c0.783-1.271,1.175-2.675,1.175-4.212c0-1.121-0.223-2.197-0.669-3.23
				c-0.447-1.033-1.096-1.933-1.947-2.702c-1.567-1.442-3.508-2.164-5.823-2.164C235.832,9.399,235.074,9.467,234.389,9.602
				 M206.596,12.389c0.779-0.654,1.739-0.981,2.881-0.981c2.377,0,3.804,1.256,4.282,3.768h-8.704
				C205.304,13.972,205.818,13.043,206.596,12.389 M217.293,16.733c0-1.059-0.192-2.037-0.576-2.935
				c-0.384-0.898-0.919-1.674-1.604-2.328s-1.495-1.162-2.429-1.526c-0.934-0.363-1.951-0.545-3.052-0.545
				c-1.121,0-2.156,0.164-3.106,0.491c-0.949,0.327-1.782,0.812-2.499,1.455c-0.55,0.499-1.033,1.088-1.448,1.768
				c-0.415,0.68-0.734,1.401-0.957,2.164c-0.224,0.763-0.335,1.533-0.335,2.312c0,1.588,0.402,3.01,1.207,4.266
				c0.804,1.256,1.935,2.232,3.394,2.927c1.458,0.695,3.101,1.043,4.928,1.043c0.539,0,1.077-0.026,1.611-0.078
				c0.535-0.052,1.043-0.137,1.526-0.256c0.483-0.12,0.989-0.278,1.518-0.475l1.822-3.208c-0.613,0.416-1.204,0.75-1.775,1.005
				c-0.571,0.254-1.181,0.441-1.83,0.56c-0.648,0.12-1.326,0.179-2.031,0.179c-1.319,0-2.481-0.249-3.488-0.747
				c-1.007-0.498-1.785-1.22-2.336-2.164c-0.55-0.945-0.856-2.066-0.918-3.364h12.378V16.733z M193.602,12.529
				c0.82,0.789,1.23,1.754,1.23,2.896c0,1.007-0.312,1.827-0.934,2.46c-0.623,0.633-1.438,0.949-2.445,0.949
				c-1.204,0-2.229-0.417-3.075-1.253c-0.846-0.835-1.269-1.85-1.269-3.044c0-0.913,0.335-1.674,1.004-2.281
				c0.67-0.607,1.498-0.911,2.484-0.911C191.78,11.345,192.782,11.74,193.602,12.529 M197.089,9.679
				c-1.027,0-2.101-0.041-3.222-0.124c-1.557-0.104-2.533-0.156-2.928-0.156c-1.276,0-2.447,0.255-3.511,0.763
				c-1.064,0.509-1.897,1.199-2.499,2.071s-0.903,1.842-0.903,2.911c0,0.748,0.161,1.474,0.483,2.18
				c0.322,0.706,0.773,1.319,1.355,1.837c0.384,0.333,0.731,0.574,1.043,0.724c0.311,0.151,0.773,0.309,1.386,0.475
				c-0.748,0.291-1.311,0.532-1.69,0.724c-0.379,0.193-0.638,0.369-0.778,0.53c-0.14,0.161-0.21,0.35-0.21,0.568
				c0,0.28,0.077,0.599,0.233,0.958c0.156,0.358,0.343,0.646,0.561,0.864c0.436,0.384,0.97,0.576,1.603,0.576
				c0.312,0,0.566-0.01,0.763-0.031c0.405-0.021,0.945-0.032,1.619-0.032c2.294,0,4.007,0.265,5.138,0.795
				c1.132,0.529,1.698,1.339,1.698,2.428c0,0.727-0.25,1.368-0.748,1.923c-0.498,0.555-1.201,0.989-2.109,1.3
				c-0.909,0.312-1.944,0.467-3.107,0.467c-1.754,0-3.15-0.324-4.188-0.973c-1.038-0.648-1.557-1.533-1.557-2.654
				c0-0.467,0.122-0.823,0.366-1.067c0.244-0.244,0.62-0.412,1.129-0.506c-0.633-0.27-1.241-0.405-1.822-0.405
				c-0.644,0-1.201,0.109-1.674,0.327c-0.472,0.218-0.83,0.527-1.074,0.927c-0.244,0.399-0.366,0.874-0.366,1.424
				c0,0.903,0.407,1.726,1.222,2.468c0.815,0.742,1.931,1.324,3.348,1.744c1.417,0.42,2.966,0.631,4.648,0.631
				c0.757,0,1.494-0.053,2.21-0.156c0.717-0.104,1.383-0.252,2.001-0.444c0.618-0.192,1.207-0.431,1.767-0.716
				c0.561-0.286,1.064-0.61,1.511-0.973c1.121-0.914,1.681-2.107,1.681-3.581c0-0.966-0.244-1.786-0.732-2.46
				c-0.342-0.446-0.804-0.859-1.385-1.238c-0.582-0.379-1.158-0.646-1.729-0.802c-0.685-0.197-1.409-0.329-2.172-0.397
				c-0.763-0.067-1.912-0.111-3.448-0.132c-0.935,0-1.402-0.213-1.402-0.639c0-0.207,0.107-0.381,0.32-0.521
				c0.212-0.14,0.552-0.257,1.019-0.351c1.454-0.145,2.569-0.368,3.348-0.669c1.266-0.457,2.221-1.074,2.865-1.853
				c0.643-0.778,0.965-1.692,0.965-2.74c0-0.851-0.197-1.609-0.592-2.273c-0.394-0.665-1.027-1.298-1.899-1.9
				c1.837,0.322,3.072,0.483,3.706,0.483c0.487,0,0.804-0.14,0.949-0.421l0.966-2.164C199.741,9.586,198.356,9.679,197.089,9.679
				 M170.74,12.389c0.779-0.654,1.739-0.981,2.881-0.981c2.377,0,3.804,1.256,4.281,3.768h-8.703
				C169.448,13.972,169.962,13.043,170.74,12.389 M181.437,16.733c0-1.059-0.192-2.037-0.576-2.935
				c-0.384-0.898-0.919-1.674-1.604-2.328s-1.495-1.162-2.429-1.526c-0.934-0.363-1.951-0.545-3.052-0.545
				c-1.121,0-2.156,0.164-3.106,0.491c-0.949,0.327-1.782,0.812-2.499,1.455c-0.55,0.499-1.033,1.088-1.448,1.768
				c-0.415,0.68-0.734,1.401-0.957,2.164c-0.224,0.763-0.335,1.533-0.335,2.312c0,1.588,0.402,3.01,1.207,4.266
				c0.804,1.256,1.935,2.232,3.394,2.927c1.458,0.695,3.101,1.043,4.928,1.043c0.539,0,1.077-0.026,1.611-0.078
				c0.535-0.052,1.043-0.137,1.526-0.256c0.483-0.12,0.989-0.278,1.518-0.475l1.822-3.208c-0.613,0.416-1.204,0.75-1.775,1.005
				c-0.571,0.254-1.181,0.441-1.83,0.56c-0.648,0.12-1.326,0.179-2.031,0.179c-1.319,0-2.481-0.249-3.488-0.747
				s-1.786-1.22-2.336-2.164c-0.55-0.945-0.856-2.066-0.918-3.364h12.378V16.733z M162.586,24.167
				c-0.13-0.337-0.195-1.04-0.195-2.11V2.58c-0.395,0.425-1.054,0.638-1.977,0.638h-2.32c0.436,0.332,0.734,0.605,0.895,0.817
				c0.161,0.213,0.265,0.475,0.311,0.787c0.047,0.311,0.07,0.882,0.07,1.712v15.523c0,0.81-0.023,1.373-0.07,1.69
				c-0.046,0.317-0.15,0.584-0.311,0.802c-0.161,0.218-0.459,0.493-0.895,0.825h5.574C163.076,24.907,162.715,24.505,162.586,24.167
				 M155.023,24.167c-0.129-0.337-0.194-1.04-0.194-2.11V2.58c-0.395,0.425-1.054,0.638-1.978,0.638h-2.319
				c0.436,0.332,0.734,0.605,0.895,0.817c0.161,0.213,0.265,0.475,0.311,0.787c0.047,0.311,0.07,0.882,0.07,1.712v15.523
				c0,0.81-0.023,1.373-0.07,1.69c-0.046,0.317-0.15,0.584-0.311,0.802c-0.161,0.218-0.459,0.493-0.895,0.825h5.574
				C155.514,24.907,155.153,24.505,155.023,24.167 M142.703,12.451c0.836,0.529,1.485,1.271,1.947,2.226
				c0.461,0.955,0.692,2.056,0.692,3.301c0,1.1-0.22,2.071-0.661,2.912c-0.442,0.84-1.062,1.494-1.861,1.961
				c-0.799,0.468-1.702,0.701-2.709,0.701c-0.758,0-1.466-0.153-2.125-0.459c-0.66-0.306-1.243-0.75-1.752-1.331
				c-0.509-0.582-0.898-1.262-1.168-2.04c-0.27-0.779-0.404-1.593-0.404-2.445c0-1.079,0.215-2.049,0.646-2.911
				c0.43-0.862,1.035-1.528,1.814-2.001c0.778-0.472,1.671-0.708,2.678-0.708C140.9,11.657,141.868,11.921,142.703,12.451
				 M138.071,9.602c-0.685,0.135-1.334,0.34-1.946,0.615c-0.612,0.275-1.194,0.62-1.744,1.035c-0.986,0.768-1.759,1.72-2.32,2.857
				c-0.56,1.137-0.84,2.328-0.84,3.573c0,1.516,0.371,2.896,1.113,4.142c0.742,1.245,1.775,2.224,3.098,2.935
				c1.324,0.711,2.79,1.066,4.399,1.066c1.65,0,3.163-0.368,4.538-1.105c1.376-0.737,2.455-1.741,3.239-3.013
				c0.783-1.271,1.175-2.675,1.175-4.212c0-1.121-0.223-2.197-0.669-3.23c-0.447-1.033-1.095-1.933-1.946-2.702
				c-1.568-1.442-3.509-2.164-5.823-2.164C139.514,9.399,138.756,9.467,138.071,9.602 M122.101,2.673
				c-2.253,0-4.289,0.504-6.111,1.51c-1.822,1.007-3.246,2.401-4.274,4.181s-1.541,3.77-1.541,5.971
				c0,1.702,0.298,3.267,0.895,4.694s1.463,2.657,2.6,3.69c1.137,1.033,2.496,1.824,4.079,2.375c1.583,0.55,3.309,0.825,5.177,0.825
				c0.664,0,1.279-0.034,1.845-0.101c0.566-0.068,1.119-0.172,1.658-0.312c0.54-0.14,1.116-0.335,1.729-0.584l1.697-3.923
				c-1.505,0.799-2.818,1.367-3.939,1.705c-1.121,0.337-2.268,0.506-3.441,0.506c-1.557,0-2.985-0.418-4.282-1.254
				c-1.298-0.835-2.32-1.974-3.067-3.417c-0.748-1.443-1.121-3.031-1.121-4.765c0-1.598,0.34-3.023,1.02-4.274
				c0.679-1.25,1.632-2.223,2.857-2.919c1.224-0.695,2.61-1.043,4.157-1.043c1.027,0,2.024,0.148,2.989,0.444
				c0.965,0.295,2.009,0.765,3.13,1.409V3.529C125.812,2.959,123.793,2.673,122.101,2.673"/>
		</g>
	</g>
</g>
</svg>
